name,districts,zipcodes
OZAN,Sud-Est##District 2##District 3,zip1|zip2|zip3##no_zipcodes##zip1 district 3|zip2 district3
CORMORANCHE-SUR-SAONE,Sud-Est##District 3,1290
PLAGNE,Sud-Est##District 2,zip 4|zip 5##zip6|zip7
TOSSIAT,Sud-Est,1250
PARIS,District 4##District 5,555range590|333range345##WCE-333|WCE-432
ANOTHER CITY,District 5##District 6,no_zipcodes##zip dis 6|zip2 dis 6
ANOTHER CITY,District 5##District 6,no_zipcodes##zip dis 6|zip2 dis 6
Ovelgönne,Deutschland,26938|26939
