name,districts,zipcodes
Abweiler,,L-3311
Ahn,,L-5401
Allerborn,,L-9631
Alscheid,,L-9632|L-9663
Altlinster,,L-6150
Altrier,,L-6225
Altwies,,L-5670|L-5671
Alzingen,,L-5815|L-5818|L-5819|L-5824|L-5829|L-5830|L-5833|L-5835|L-5836|L-5854|L-5863|L-5865|L-5868|L-5869|L-5870|L-5871|L-5872|L-5873|L-5886|L-5887|L-5888|L-5890|L-5892
Angelsberg,,L-7410
Ansembourg,,L-7411
Arsdorf,,L-8808|L-8809
Aspelt,,L-5701|L-5710|L-5711|L-5712|L-5713|L-5716|L-5717|L-5718|L-5720|L-5721|L-5722|L-5723|L-5730
Assel,,L-5402
Asselborn,,L-9940
Asselscheuer,,L-7392
Basbellain,,L-9942
Bascharage,,L-4901|L-4902|L-4907|L-4908|L-4909|L-4911|L-4912|L-4914|L-4916|L-4917|L-4918|L-4919|L-4920|L-4922|L-4925|L-4926|L-4928|L-4930|L-4933|L-4936|L-4938|L-4939|L-4940|L-4941|L-4942|L-4944|L-4945|L-4946|L-4947|L-4948|L-4950|L-4951|L-4952|L-4954|L-4955|L-4959
Baschleiden,,L-9633
Bastendorf,,L-9350|L-9351|L-9359
Bavigne,,L-9635
Beaufort,,L-6301|L-6310|L-6311|L-6312|L-6313|L-6314|L-6315|L-6380
Bech,,L-6230|L-6231
Bech-Kleinmacher,,L-5403|L-5404|L-5405|L-5422
Beckerich,,L-8521|L-8522|L-8523
Beidweiler,,L-6235
Beiler,,L-9944
Belvaux,,L-4401|L-4402|L-4406|L-4407|L-4412|L-4416|L-4419|L-4422|L-4429|L-4430|L-4431|L-4436|L-4443|L-4444|L-4445|L-4446|L-4450|L-4451|L-4460|L-4461|L-4462|L-4468|L-4475|L-4476|L-4477|L-4478|L-4480|L-4481|L-4482|L-4487|L-4488|L-4489|L-4490|L-4491
Berbourg,,L-6830|L-6831
Berchem,,L-3320|L-3321|L-3322|L-3325
Berdorf,,L-6550|L-6551|L-6552|L-6553|L-6562
Bereldange,,L-7212|L-7213|L-7214|L-7215|L-7216|L-7217|L-7221|L-7223|L-7225|L-7227|L-7232|L-7233|L-7235|L-7236|L-7239|L-7240|L-7241|L-7243|L-7244|L-7245|L-7248|L-7249|L-7252|L-7254|L-7259|L-7260|L-7268
Berg (Betzdorf),,L-6922
Bergem,,L-3313|L-3314|L-3315|L-3316|L-3317|L-3318
Beringen,,L-7409|L-7464|L-7590|L-7591|L-7592|L-7593|L-7594
Berle,,L-9636
Berschbach,,L-7540|L-7543
Bertrange,,L-8005|L-8006|L-8007|L-8041|L-8050|L-8051|L-8052|L-8053|L-8054|L-8055|L-8056|L-8057|L-8058|L-8059|L-8060|L-8061|L-8062|L-8063|L-8064|L-8065|L-8066|L-8067|L-8068|L-8069|L-8070|L-8071|L-8074|L-8075|L-8077|L-8078|L-8079|L-8080|L-8081|L-8082|L-8083|L-8084|L-8085|L-8086|L-8087|L-8088|L-8089|L-8090|L-8091|L-8092|L-8093|L-8094|L-8095|L-8268
Besslingen,,L-9942
Bettange-Sur-Mess,,L-4970|L-4971|L-4975|L-4976
Bettborn,,L-8601|L-8606
Bettel,,L-9451|L-9452
Bettembourg,,L-3201|L-3209|L-3210|L-3211|L-3212|L-3213|L-3214|L-3215|L-3216|L-3217|L-3218|L-3219|L-3220|L-3221|L-3222|L-3223|L-3224|L-3225|L-3230|L-3231|L-3232|L-3233|L-3234|L-3235|L-3236|L-3237|L-3238|L-3239|L-3240|L-3241|L-3242|L-3249|L-3250|L-3251|L-3252|L-3253|L-3254|L-3255|L-3256|L-3257|L-3258|L-3259|L-3260|L-3261|L-3265|L-3266|L-3267|L-3269|L-3270|L-3271|L-3272|L-3273|L-3274|L-3275|L-3276|L-3277|L-3278|L-3279|L-3280|L-3281|L-3282|L-3283|L-3284|L-3285|L-3286|L-3287|L-3288|L-3290
Bettendorf,,L-9353|L-9354|L-9355|L-9356|L-9357|L-9359
Betzdorf,,L-6832
Beyren,,L-5410
Bigelbach,,L-6340
Bigonville,,L-8812|L-8813|L-8814
Bill,,L-7425
Bilsdorf,,L-8811
Binsfeld,,L-9946
Birkelt,,L-6552
Birtrange,,L-7758
Bissen,,L-7703|L-7760|L-7761|L-7762|L-7763|L-7764|L-7765|L-7766|L-7767|L-7768|L-7769|L-7770|L-7771|L-7772|L-7773|L-7777|L-7778|L-7780|L-7781|L-7782|L-7783|L-7784|L-7785|L-7786|L-7787|L-7788|L-7789|L-7790|L-7791|L-7792|L-7793|L-7794
Bivange,,L-3320|L-3322|L-3323|L-3324
Bivels,,L-9453
Biwer,,L-6833|L-6834
Biwisch,,L-9948
Blaschette,,L-7390|L-7391|L-7392
Blumenthal,,L-7639
Bockholtz (Goesdorf),,L-9637
Bockholtz (Hosingen),,L-9830
Boevange (Clervaux),,L-9740
Boevange-Sur-Attert,,L-8710|L-8711
Bofferdange,,L-7362|L-7372|L-7373|L-7374|L-7376|L-7378|L-7381
Bollendorf-Pont,,L-6555
Born,,L-6660|L-6661
Boudler,,L-6835
Boudlerbach,,L-6835
Boulaide,,L-9633|L-9639|L-9640
Bour,,L-7412
Bourglinster,,L-6160|L-6161|L-6162|L-6163
Bourscheid,,L-9140|L-9164|L-9172
Boursdorf,,L-6663
Bous,,L-5407|L-5408
Boxhorn,,L-9741|L-9742
Brachtenbach,,L-9641
Brandenbourg,,L-9360|L-9361|L-9378
Brattert,,L-8816
Breidfeld,,L-9950
Breidweiler,,L-6238|L-6239
Breinert,,L-6836
Bridel,,L-8116|L-8118|L-8119|L-8120|L-8121|L-8123|L-8124|L-8125|L-8126|L-8127|L-8128|L-8129|L-8131|L-8132|L-8133|L-8134|L-8135|L-8137|L-8138|L-8139|L-8140|L-8141|L-8142|L-8145|L-8146|L-8147|L-8149|L-8150|L-8151|L-8152|L-8153|L-8154|L-8156|L-8157|L-8158|L-8159|L-8160|L-8165
Broderbour,,L-9373
Brouch (Biwer),,L-6837
Brouch (Boevange-Sur-Attert),,L-7415|L-7416|L-7417
Buederscheid,,L-9643
Buerden,,L-9142
Burmerange,,L-5675
Buschdorf,,L-7418
Buschrodt,,L-8610
Calmus,,L-8525
Canach,,L-5411|L-5412|L-5413|L-5414|L-5415|L-5505
Cap,,L-8301|L-8302|L-8303|L-8308|L-8309|L-8310|L-8311|L-8313|L-8314|L-8317|L-8318|L-8323|L-8325|L-8326|L-8328|L-8329|L-8330|L-8331|L-8334|L-8335|L-8336|L-8337|L-8383|L-8399
Christnach,,L-7640|L-7641
Cinqfontaines,,L-9902
Clemency,,L-4960|L-4961|L-4962|L-4963|L-4964|L-4965|L-4966|L-4967
Clervaux,,L-9701|L-9706|L-9707|L-9708|L-9709|L-9710|L-9711|L-9712|L-9713|L-9714|L-9715|L-9737|L-9765
Colbette,,L-6239
Colmar-Berg,,L-7701|L-7710|L-7711|L-7712|L-7713|L-7714|L-7715|L-7716|L-7720|L-7721|L-7722|L-7724|L-7726|L-7727|L-7730|L-7731|L-7732|L-7733|L-7734|L-7735|L-7737|L-7738|L-7739|L-7740|L-7741|L-7750
Colpach-Bas,,L-8526|L-8527
Colpach-Haut,,L-8528
Consdorf,,L-6201|L-6210|L-6211|L-6212|L-6213|L-6214|L-6250
Consthum,,L-9831
Contern,,L-5310|L-5312|L-5314|L-5316|L-5318|L-5320|L-5322|L-5324|L-5326|L-5328|L-5332
Crauthem,,L-3326|L-3327|L-3328|L-3329|L-3330
Crendal,,L-9743
Cruchten,,L-7420|L-7421
Dahl,,L-9644
Dahlem,,L-8351|L-8352
Dalheim,,L-5605|L-5680|L-5681|L-5682|L-5683|L-5684|L-5685|L-5686|L-5687
Deiffelt,,L-9744
Dellen,,L-9144
Derenbach,,L-9645
Dickweiler,,L-6557
Diekirch,,L-9201|L-9202|L-9203|L-9205|L-9206|L-9207|L-9208|L-9209|L-9210|L-9211|L-9212|L-9213|L-9214|L-9215|L-9216|L-9217|L-9218|L-9220|L-9221|L-9224|L-9225|L-9226|L-9227|L-9228|L-9229|L-9230|L-9231|L-9232|L-9233|L-9234|L-9235|L-9236|L-9237|L-9238|L-9239|L-9240|L-9241|L-9242|L-9243|L-9244|L-9250|L-9251|L-9252|L-9253|L-9254|L-9255|L-9256|L-9257|L-9258|L-9259|L-9260|L-9261|L-9262|L-9263|L-9264|L-9265|L-9266|L-9267|L-9268|L-9273|L-9275|L-9276|L-9277|L-9278|L-9279|L-9280|L-9281|L-9282|L-9283|L-9284|L-9285|L-9286|L-9287|L-9288|L-9289|L-9290|L-9291|L-9292|L-9293|L-9330|L-9359|L-9369|L-9370|L-9378
Differdange,,L-4501|L-4502|L-4503|L-4505|L-4506|L-4507|L-4508|L-4509|L-4510|L-4511|L-4512|L-4513|L-4514|L-4515|L-4516|L-4517|L-4518|L-4519|L-4520|L-4521|L-4523|L-4524|L-4525|L-4526|L-4527|L-4528|L-4529|L-4530|L-4531|L-4532|L-4533|L-4534|L-4535|L-4536|L-4537|L-4538|L-4539|L-4540|L-4541|L-4545|L-4550|L-4551|L-4552|L-4553|L-4554|L-4555|L-4556|L-4557|L-4558|L-4559|L-4560|L-4561|L-4562|L-4569|L-4570|L-4571|L-4572|L-4573|L-4574|L-4575|L-4576|L-4577|L-4578|L-4579|L-4580|L-4581|L-4582|L-4583|L-4590|L-4591|L-4592|L-4593|L-4594|L-4595|L-4596|L-4597|L-4598|L-4599|L-4601|L-4602|L-4603|L-4604|L-4605|L-4606|L-4607|L-4608|L-4609|L-4610|L-4611|L-4612|L-4620|L-4621|L-4622|L-4623|L-4624|L-4625|L-4626|L-4627|L-4628|L-4629|L-4630|L-4631|L-4632|L-4633|L-4634|L-4635|L-4636|L-4640|L-4641|L-4642|L-4643|L-4644|L-4645|L-4646|L-4647|L-4648|L-4649|L-4650|L-4651|L-4656|L-4657|L-4658|L-4659|L-4660|L-4661|L-4662|L-4663|L-4664|L-4665|L-4666|L-4667|L-4668|L-4669|L-4670|L-4671|L-4672|L-4676|L-4677|L-4678|L-4679|L-4680|L-4681|L-4682|L-4683|L-4684|L-4685|L-4686|L-4687|L-4688|L-4689|L-4690|L-4691|L-4692|L-4693
Dillingen,,L-6350
Dippach,,L-4906|L-4972|L-4973|L-4974
Dirbach,,L-9153
Doennange,,L-9745
Doncols,,L-9647
Dondelange,,L-7423
Dorscheid,,L-9833
Drauffelt,,L-9746
Dreiborn,,L-5499
Drinklange,,L-9952
Dudelange,,L-3401|L-3402|L-3403|L-3409|L-3410|L-3411|L-3412|L-3413|L-3414|L-3415|L-3416|L-3417|L-3418|L-3419|L-3420|L-3421|L-3422|L-3423|L-3424|L-3425|L-3426|L-3427|L-3428|L-3429|L-3430|L-3431|L-3432|L-3433|L-3439|L-3440|L-3441|L-3442|L-3443|L-3444|L-3445|L-3446|L-3447|L-3448|L-3449|L-3450|L-3451|L-3452|L-3453|L-3460|L-3461|L-3462|L-3463|L-3464|L-3465|L-3466|L-3467|L-3468|L-3469|L-3470|L-3471|L-3472|L-3473|L-3474|L-3475|L-3480|L-3481|L-3482|L-3483|L-3484|L-3485|L-3486|L-3487|L-3488|L-3489|L-3490|L-3491|L-3492|L-3493|L-3501|L-3502|L-3503|L-3504|L-3505|L-3506|L-3507|L-3508|L-3509|L-3510|L-3511|L-3512|L-3513|L-3514|L-3515|L-3516|L-3520|L-3521|L-3522|L-3523|L-3524|L-3525|L-3526|L-3530|L-3531|L-3532|L-3539|L-3540|L-3541|L-3542|L-3543|L-3544|L-3545|L-3546|L-3547|L-3548|L-3549|L-3550|L-3551|L-3552|L-3553|L-3554|L-3560|L-3561|L-3562|L-3563|L-3564|L-3565|L-3566|L-3567|L-3568|L-3569|L-3570|L-3571|L-3572|L-3573|L-3574|L-3575|L-3576|L-3582|L-3583|L-3588|L-3589|L-3590|L-3591|L-3592|L-3593|L-3594|L-3595|L-3596|L-3597|L-3598
Echternach,,L-6401|L-6402|L-6408|L-6409|L-6410|L-6411|L-6412|L-6413|L-6414|L-6415|L-6416|L-6417|L-6418|L-6419|L-6420|L-6421|L-6422|L-6423|L-6430|L-6431|L-6432|L-6433|L-6434|L-6435|L-6436|L-6437|L-6438|L-6439|L-6440|L-6441|L-6442|L-6445|L-6446|L-6447|L-6448|L-6449|L-6450|L-6451|L-6452|L-6453|L-6454|L-6455|L-6460|L-6461|L-6462|L-6463|L-6464|L-6465|L-6466|L-6467|L-6468|L-6469|L-6470|L-6471|L-6472|L-6473|L-6474|L-6475|L-6476|L-6477|L-6478|L-6479|L-6480|L-6481|L-6482|L-6483|L-6484|L-6485|L-6486|L-6488|L-6490|L-6491|L-6492|L-6493|L-6494|L-6495|L-6496|L-6497|L-6499|L-6562|L-6572
Ehlange,,L-3960|L-3961
Ehlerange,,L-4380|L-4381|L-4382|L-4383|L-4384|L-4385
Ehnen,,L-5416|L-5417|L-5418|L-5419|L-5488|L-5489
Ehner,,L-8529
Eischen,,L-8460|L-8461|L-8462|L-8463|L-8464|L-8465|L-8466|L-8467|L-8468|L-8469|L-8470|L-8471|L-8472|L-8473|L-8474|L-8475|L-8476|L-8477|L-8478|L-8479|L-8480
Eisenbach,,L-9838|L-9839
Eisenborn,,L-6196
Ell,,L-8530|L-8531
Ellange,,L-5690|L-5691
Eltz,,L-8540
Elvange (Beckerich),,L-8533
Elvange (Burmerange),,L-5692|L-5693
Emerange,,L-5695
Ennerschlenner,,L-9183
Enscherange,,L-9747
Eppeldorf,,L-9364|L-9365
Ermsdorf,,L-9364|L-9366
Ernster,,L-6165|L-6166
Ernzen,,L-7635|L-7636
Erpeldange,,L-9145|L-9146|L-9147|L-9172
Erpeldange (Bous),,L-5421|L-5422
Erpeldange (Eschweiler),,L-9648
Ersange,,L-5423
Esch-Sur-Alzette,,L-4001|L-4002|L-4003|L-4004|L-4005|L-4006|L-4007|L-4008|L-4009|L-4010|L-4011|L-4012|L-4013|L-4014|L-4015|L-4016|L-4017|L-4018|L-4019|L-4020|L-4021|L-4022|L-4023|L-4024|L-4025|L-4026|L-4027|L-4028|L-4029|L-4030|L-4031|L-4032|L-4033|L-4034|L-4035|L-4036|L-4037|L-4038|L-4039|L-4040|L-4041|L-4042|L-4043|L-4044|L-4045|L-4050|L-4051|L-4052|L-4053|L-4054|L-4055|L-4056|L-4057|L-4059|L-4060|L-4061|L-4062|L-4063|L-4064|L-4065|L-4066|L-4067|L-4068|L-4069|L-4070|L-4080|L-4081|L-4082|L-4083|L-4084|L-4085|L-4086|L-4100|L-4101|L-4102|L-4103|L-4104|L-4105|L-4106|L-4107|L-4108|L-4109|L-4110|L-4111|L-4112|L-4113|L-4114|L-4115|L-4118|L-4120|L-4121|L-4122|L-4123|L-4125|L-4130|L-4131|L-4132|L-4133|L-4134|L-4135|L-4136|L-4137|L-4138|L-4139|L-4140|L-4141|L-4142|L-4149|L-4150|L-4151|L-4152|L-4153|L-4154|L-4155|L-4156|L-4165|L-4166|L-4167|L-4168|L-4169|L-4170|L-4171|L-4172|L-4173|L-4174|L-4175|L-4176|L-4177|L-4178|L-4179|L-4201|L-4202|L-4203|L-4204|L-4205|L-4206|L-4207|L-4208|L-4209|L-4210|L-4213|L-4214|L-4216|L-4217|L-4220|L-4221|L-4222|L-4230|L-4231|L-4232|L-4233|L-4234|L-4235|L-4236|L-4237|L-4238|L-4239|L-4240|L-4241|L-4242|L-4243|L-4244|L-4245|L-4246|L-4247|L-4248|L-4249|L-4250|L-4251|L-4252|L-4253|L-4254|L-4260|L-4261|L-4262|L-4263|L-4264|L-4265|L-4266|L-4267|L-4270|L-4271|L-4275|L-4276|L-4277|L-4278|L-4279|L-4280|L-4281|L-4282|L-4289|L-4301|L-4302|L-4303|L-4304|L-4305|L-4306|L-4307|L-4308|L-4309|L-4310|L-4314|L-4315|L-4316|L-4317|L-4318|L-4319|L-4320|L-4321|L-4322|L-4323|L-4324|L-4325|L-4326|L-4329|L-4330|L-4331|L-4332|L-4333|L-4334|L-4335|L-4336|L-4337|L-4340|L-4341|L-4342|L-4343|L-4344|L-4345|L-4346|L-4347|L-4348|L-4349|L-4350|L-4351|L-4352|L-4353|L-4354
Esch-Sur-Sure,,L-9506|L-9650
Eschdorf,,L-9150|L-9151
Eschette,,L-8817
Eschweiler,,L-9651
Eschweiler (Junglinster),,L-6169
Eselborn,,L-9738|L-9748|L-9779
Essingen,,L-7424
Ettelbruck,,L-9001|L-9002|L-9003|L-9004|L-9010|L-9011|L-9012|L-9013|L-9014|L-9015|L-9016|L-9017|L-9020|L-9021|L-9022|L-9023|L-9024|L-9025|L-9026|L-9027|L-9040|L-9041|L-9042|L-9043|L-9044|L-9045|L-9046|L-9047|L-9048|L-9050|L-9051|L-9052|L-9053|L-9054|L-9055|L-9060|L-9061|L-9062|L-9063|L-9064|L-9065|L-9066|L-9067|L-9068|L-9069|L-9070|L-9071|L-9080|L-9081|L-9082|L-9083|L-9084|L-9085|L-9086|L-9087|L-9088|L-9089|L-9091|L-9092|L-9093|L-9094|L-9098
Everlange,,L-8558|L-8715
Fennange,,L-3332
Fentange,,L-5808|L-5811|L-5813|L-5814|L-5817|L-5820|L-5823|L-5825|L-5828|L-5832|L-5837|L-5838|L-5839|L-5853|L-5861|L-5862|L-5864|L-5867|L-5889|L-5891
Filsdorf,,L-5740|L-5741
Findel,,L-1110|L-1523|L-1748|L-1843|L-2632
Fingig,,L-4978|L-4979
Finsterthal,,L-7425
Fischbach,,L-7430
Fischbach (Heinerscheid),,L-9749
Flatzbour,,L-8812
Flaxweiler,,L-6925|L-6926
Flebour,,L-9378
Foetz,,L-3895|L-3896|L-3897|L-3898|L-3899
Folkendange,,L-9368
Folschette,,L-8537|L-8834|L-8835
Fond De Heiderscheid,,L-9659
Fouhren,,L-9454|L-9455
Freckeisen,,L-7649
Frisange,,L-5750|L-5751|L-5752|L-5753|L-5754
Gaichel,,L-8469
Garnich,,L-8305|L-8353|L-8354|L-8355|L-8356
Geyershof,,L-6251
Gilsdorf,,L-9221|L-9370|L-9371|L-9372|L-9373
Girst,,L-6559
Girsterklaus,,L-6558
Givenich,,L-6666
Glabach,,L-7431
Godbrange,,L-6170|L-6171
Goebelsmuehle,,L-9153
Goeblange,,L-8357|L-8358|L-8359
Goedange,,L-9954
Goesdorf,,L-9653
Goetzingen,,L-8360|L-8361
Gonderange,,L-6180|L-6181|L-6182|L-6183|L-6184|L-6185|L-6186|L-6187|L-6188|L-6189
Gosseldange,,L-7432
Gostingen,,L-5424|L-5425
Gralingen,,L-9375
Grass,,L-8362
Graulinster,,L-6240
Greisch,,L-8363
Greiveldange,,L-5426|L-5427
Grentzingen,,L-7758
Grevels,,L-8818
Grevenknapp,,L-7433
Grevenmacher,,L-6701|L-6711|L-6712|L-6713|L-6714|L-6715|L-6716|L-6717|L-6718|L-6719|L-6720|L-6721|L-6722|L-6723|L-6724|L-6725|L-6726|L-6730|L-6731|L-6732|L-6733|L-6734|L-6735|L-6736|L-6737|L-6738|L-6739|L-6740|L-6741|L-6742|L-6743|L-6744|L-6745|L-6750|L-6751|L-6752|L-6753|L-6754|L-6755|L-6756|L-6757|L-6758|L-6759|L-6760|L-6761|L-6762|L-6763|L-6764|L-6765|L-6770|L-6771|L-6772|L-6773|L-6774|L-6775|L-6776|L-6777|L-6778|L-6779|L-6780|L-6781|L-6782|L-6783|L-6784|L-6785|L-6786|L-6790|L-6791|L-6792|L-6793|L-6794|L-6795|L-6796|L-6815|L-6850
Grindhausen,,L-9751
Grosbous,,L-9006|L-9154|L-9155
Gruemmelscheid,,L-9654
Grundhof,,L-6360
Hachiville,,L-9956
Hagelsdorf,,L-6838
Hagen,,L-8365|L-8366|L-8367|L-8368
Haller,,L-6370|L-7634
Hamiville,,L-9752
Harlange,,L-9655|L-9656|L-9657
Hassel,,L-5760|L-5761|L-5762
Hautbellain,,L-9943
Hautcharage,,L-4910|L-4913|L-4915|L-4921|L-4923|L-4924|L-4927|L-4929|L-4931|L-4932|L-4934|L-4935|L-4937|L-4940|L-4942|L-4943|L-4945|L-4947|L-4949|L-4953|L-4956
Heffingen,,L-7634|L-7650|L-7651|L-7652|L-7653|L-7673
Heiderscheid,,L-9156|L-9157|L-9158
Heiderscheidergrund,,L-9659
Heinerscheid,,L-9753|L-9968
Heisbich,,L-6551
Heisdorf,,L-7304|L-7308|L-7310|L-7311|L-7313|L-7314|L-7318|L-7325|L-7328|L-7329|L-7330|L-7334|L-7335|L-7337|L-7338|L-7340|L-7341|L-7342|L-7345|L-7348|L-7349
Heispelt (Wahl),,L-8819
Hellange,,L-3333|L-3334|L-3335|L-3336|L-3337
Helmdange,,L-7351|L-7352|L-7354|L-7355|L-7357|L-7360|L-7371|L-7372|L-7373|L-7374|L-7382
Helmsange,,L-7210|L-7211|L-7218|L-7219|L-7220|L-7226|L-7228|L-7229|L-7230|L-7231|L-7234|L-7237|L-7242|L-7246|L-7247|L-7250|L-7251|L-7255|L-7258|L-7261|L-7262|L-7263|L-7270
Hemstal,,L-6243
Herborn,,L-6665
Hersberg,,L-6225
Hesperange,,L-1614|L-5801|L-5809|L-5810|L-5812|L-5816|L-5822|L-5826|L-5827|L-5831|L-5834|L-5840|L-5841|L-5842|L-5852|L-5855|L-5856|L-5859|L-5860|L-5862|L-5863|L-5866|L-5874|L-5876|L-5878|L-5880|L-5884|L-5885|L-5886|L-5887|L-5893|L-5940|L-5941
Hettermillen,,L-5429
Hierheck,,L-9144
Hinkel,,L-6560
Hinter-Hassel,,L-9754
Hivange,,L-8369
Hobscheid,,L-8370|L-8371|L-8372|L-8373|L-8374
Hoesdorf,,L-9456
Hoffelt,,L-9960
Hollenfels,,L-7435
Holler,,L-9962
Hollermillen,,L-9968
Holtz,,L-8820
Holzem,,L-8277|L-8278|L-8279
Holzthum,,L-9834
Hoscheid,,L-9376|L-9377|L-9378
Hoscheid-Dickt,,L-9835
Hosingen,,L-9801|L-9805|L-9806|L-9807|L-9808|L-9809|L-9836
Hostert (Niederanven),,L-6970|L-6971|L-6978|L-6985|L-6988|L-6989|L-6990|L-6996|L-6998
Hostert (Rambrouch),,L-8537|L-8546
Hovelange,,L-8538
Howald,,L-1137|L-1216|L-1223|L-1228|L-1231|L-1232|L-1274|L-1350|L-1353|L-1363|L-1423|L-1455|L-1467|L-1508|L-1625|L-1749|L-1813|L-1818|L-1842|L-1867|L-1949|L-2112|L-2129|L-2272|L-2317|L-2319|L-2370|L-2412|L-2416|L-2425|L-2446|L-2524|L-2529|L-2545|L-2610|L-2611|L-2723|L-2727|L-5821|L-5850|L-5884|L-5885
Huldange,,L-9964
Huncherange,,L-3340|L-3341
Hunsdorf,,L-7395|L-7396|L-7397
Hupperdange,,L-9755|L-9756
Huttange,,L-8539
Imbringen,,L-6195
Ingeldorf,,L-9099|L-9160|L-9161
Insenborn,,L-9660
Itzig,,L-5280|L-5942|L-5943|L-5950|L-5951|L-5952|L-5953|L-5954|L-5955|L-5956|L-5957|L-5958|L-5959|L-5960|L-5961|L-5962|L-5963|L-5964|L-5969|L-5970|L-5971|L-5972|L-5973|L-5974|L-5975|L-5976|L-5977|L-5978
Junglinster,,L-6101|L-6111|L-6112|L-6113|L-6114|L-6115|L-6116|L-6117|L-6118|L-6119|L-6120|L-6121|L-6130|L-6131|L-6132|L-6133|L-6134|L-6135|L-6136|L-6137|L-6140|L-6141|L-6142|L-6143|L-6144|L-6145|L-6146|L-6147|L-6148|L-6155
Kaesfurt (Beiler),,L-9966
Kahler,,L-8376
Kalborn,,L-9757|L-9758
Kalkesbach,,L-6214
Kapenacker,,L-5432
Kapweiler,,L-8541
Kaundorf,,L-9662
Kautenbach,,L-9663
Kayl,,L-3601|L-3611|L-3612|L-3613|L-3614|L-3615|L-3616|L-3617|L-3620|L-3621|L-3622|L-3630|L-3631|L-3635|L-3636|L-3637|L-3638|L-3640|L-3641|L-3642|L-3643|L-3644|L-3650|L-3651|L-3652|L-3653|L-3654|L-3655|L-3656|L-3657|L-3658|L-3660|L-3670|L-3671|L-3672|L-3673|L-3674|L-3675|L-3676
Kehlen,,L-8205|L-8274|L-8280|L-8281|L-8282|L-8283|L-8284|L-8285|L-8286|L-8287|L-8288|L-8289|L-8290|L-8295
Kehmen,,L-9163
Keispelt,,L-8293|L-8294|L-8295
Keiwelbach,,L-9364
Kleinbettingen,,L-8307|L-8378|L-8379|L-8380|L-8381
Kleinhoscheid,,L-9759
Knaphoscheid,,L-9759
Kobenbour,,L-6225
Kockelscheuer,,L-1898|L-1899
Koedange,,L-6155
Koerich,,L-8306|L-8383|L-8384|L-8385|L-8386|L-8387|L-8388
Koetschette,,L-8821
Kopstal,,L-8179|L-8180|L-8181|L-8182|L-8183|L-8184|L-8185|L-8186|L-8187|L-8188|L-8189|L-8190|L-8191
Kuborn,,L-8822
Lamadelaine,,L-4744|L-4870|L-4871|L-4872|L-4873|L-4874|L-4875|L-4876|L-4877|L-4878|L-4879|L-4880|L-4881|L-4882|L-4883|L-4884|L-4885|L-4886|L-4887|L-4888
Landscheid,,L-9457|L-9458
Lannen,,L-8542
Larochette,,L-7601|L-7610|L-7611|L-7612|L-7613|L-7614|L-7615|L-7616|L-7617|L-7618|L-7619|L-7620|L-7621|L-7622|L-7623|L-7624|L-7625|L-7626|L-7627|L-7633|L-7634
Lasauvage,,L-4696|L-4697|L-4698
Lausdorn,,L-9968
Lauterborn,,L-6562
Leesbach,,L-8363
Lehrhof,,L-9144
Leithum,,L-9970
Lellig,,L-6839
Lellingen,,L-9760
Lenningen,,L-5430|L-5431
Lentzweiler,,L-9761|L-9779
Leudelange,,L-3205|L-3345|L-3346|L-3347|L-3348|L-3349|L-3350|L-3351|L-3352|L-3353|L-3354|L-3355|L-3356|L-3357|L-3358|L-3359|L-3360|L-3361|L-3362|L-3363|L-3364|L-3365|L-3366|L-3367|L-3368|L-3369|L-3370|L-3371|L-3372|L-3373|L-3376|L-3377
Levelange,,L-8543
Liefrange,,L-9665
Lieler,,L-9972
Limpach,,L-4499
Linger,,L-4795|L-4796|L-4797|L-4798
Lintgen,,L-7440|L-7441|L-7442|L-7443|L-7444|L-7445|L-7446|L-7447|L-7448|L-7449|L-7450|L-7451|L-7452|L-7453|L-7454|L-7455|L-7456|L-7457|L-7505
Lipperscheid,,L-9164|L-9378
Livange,,L-3378
Longsdorf,,L-9459
Lorentzweiler,,L-7205|L-7350|L-7353|L-7356|L-7358|L-7359|L-7361|L-7363|L-7370|L-7372|L-7373|L-7374|L-7375|L-7377|L-7379|L-7380
Lullange,,L-9762|L-9780
Lultzhausen,,L-9666
Luxembourg,,L-1009|L-1010|L-1011|L-1012|L-1013|L-1014|L-1015|L-1016|L-1017|L-1018|L-1019|L-1020|L-1021|L-1022|L-1023|L-1024|L-1025|L-1026|L-1027|L-1028|L-1029|L-1030|L-1050|L-1090|L-1111|L-1112|L-1113|L-1114|L-1115|L-1116|L-1117|L-1118|L-1119|L-1120|L-1121|L-1122|L-1123|L-1124|L-1125|L-1126|L-1127|L-1128|L-1129|L-1130|L-1131|L-1132|L-1133|L-1134|L-1135|L-1136|L-1138|L-1139|L-1140|L-1141|L-1142|L-1143|L-1144|L-1145|L-1146|L-1147|L-1148|L-1149|L-1150|L-1151|L-1152|L-1159|L-1160|L-1208|L-1210|L-1211|L-1212|L-1213|L-1214|L-1215|L-1217|L-1218|L-1219|L-1220|L-1221|L-1222|L-1224|L-1225|L-1226|L-1227|L-1229|L-1230|L-1233|L-1234|L-1235|L-1236|L-1237|L-1238|L-1240|L-1241|L-1242|L-1243|L-1244|L-1246|L-1247|L-1248|L-1249|L-1250|L-1251|L-1252|L-1253|L-1254|L-1255|L-1256|L-1257|L-1258|L-1260|L-1261|L-1262|L-1263|L-1264|L-1265|L-1266|L-1267|L-1268|L-1269|L-1270|L-1271|L-1272|L-1273|L-1275|L-1276|L-1277|L-1278|L-1279|L-1280|L-1310|L-1311|L-1312|L-1313|L-1314|L-1315|L-1316|L-1317|L-1318|L-1319|L-1320|L-1321|L-1322|L-1323|L-1324|L-1325|L-1326|L-1327|L-1328|L-1329|L-1330|L-1331|L-1332|L-1333|L-1334|L-1335|L-1336|L-1337|L-1338|L-1339|L-1340|L-1341|L-1342|L-1343|L-1344|L-1345|L-1346|L-1347|L-1348|L-1349|L-1350|L-1351|L-1352|L-1354|L-1355|L-1356|L-1357|L-1358|L-1359|L-1361|L-1362|L-1364|L-1365|L-1366|L-1367|L-1368|L-1369|L-1370|L-1371|L-1372|L-1373|L-1409|L-1411|L-1412|L-1413|L-1414|L-1415|L-1416|L-1417|L-1418|L-1419|L-1420|L-1421|L-1422|L-1424|L-1425|L-1426|L-1427|L-1428|L-1429|L-1430|L-1431|L-1432|L-1445|L-1449|L-1450|L-1451|L-1452|L-1453|L-1454|L-1456|L-1457|L-1458|L-1459|L-1460|L-1461|L-1462|L-1463|L-1464|L-1465|L-1466|L-1468|L-1469|L-1470|L-1471|L-1472|L-1473|L-1474|L-1475|L-1476|L-1477|L-1478|L-1479|L-1480|L-1481|L-1482|L-1490|L-1499|L-1509|L-1510|L-1511|L-1512|L-1513|L-1514|L-1515|L-1516|L-1517|L-1518|L-1519|L-1520|L-1521|L-1522|L-1524|L-1525|L-1526|L-1527|L-1528|L-1529|L-1530|L-1531|L-1532|L-1533|L-1534|L-1535|L-1536|L-1537|L-1538|L-1539|L-1540|L-1541|L-1542|L-1543|L-1544|L-1545|L-1546|L-1547|L-1610|L-1611|L-1613|L-1614|L-1615|L-1616|L-1617|L-1618|L-1619|L-1620|L-1621|L-1622|L-1623|L-1624|L-1626|L-1627|L-1628|L-1629|L-1630|L-1631|L-1632|L-1633|L-1634|L-1635|L-1636|L-1637|L-1639|L-1640|L-1641|L-1642|L-1643|L-1644|L-1645|L-1647|L-1648|L-1649|L-1650|L-1651|L-1652|L-1660|L-1661|L-1710|L-1711|L-1712|L-1713|L-1714|L-1715|L-1716|L-1717|L-1718|L-1719|L-1720|L-1721|L-1722|L-1723|L-1724|L-1725|L-1726|L-1727|L-1728|L-1729|L-1730|L-1731|L-1732|L-1733|L-1734|L-1735|L-1737|L-1738|L-1739|L-1740|L-1741|L-1742|L-1743|L-1744|L-1745|L-1746|L-1747|L-1750|L-1811|L-1812|L-1814|L-1815|L-1816|L-1817|L-1820|L-1831|L-1832|L-1833|L-1834|L-1835|L-1836|L-1837|L-1838|L-1839|L-1840|L-1841|L-1850|L-1851|L-1852|L-1853|L-1854|L-1855|L-1856|L-1857|L-1858|L-1859|L-1860|L-1861|L-1862|L-1863|L-1864|L-1865|L-1866|L-1868|L-1869|L-1870|L-1871|L-1880|L-1881|L-1882|L-1899|L-1910|L-1911|L-1912|L-1913|L-1914|L-1915|L-1916|L-1917|L-1918|L-1919|L-1920|L-1921|L-1922|L-1923|L-1924|L-1925|L-1926|L-1927|L-1928|L-1929|L-1930|L-1931|L-1932|L-1933|L-1934|L-1935|L-1936|L-1937|L-1938|L-1939|L-1940|L-1941|L-1942|L-1943|L-1944|L-1945|L-1946|L-1947|L-1948|L-1950|L-1951|L-1952|L-1953|L-1954|L-2010|L-2011|L-2012|L-2013|L-2014|L-2015|L-2016|L-2017|L-2018|L-2019|L-2020|L-2085|L-2086|L-2087|L-2088|L-2089|L-2090|L-2091|L-2092|L-2093|L-2094|L-2095|L-2096|L-2097|L-2098|L-2099|L-2111|L-2113|L-2114|L-2115|L-2116|L-2117|L-2118|L-2119|L-2120|L-2121|L-2122|L-2123|L-2124|L-2125|L-2127|L-2128|L-2130|L-2131|L-2132|L-2133|L-2134|L-2135|L-2137|L-2138|L-2140|L-2141|L-2142|L-2143|L-2144|L-2145|L-2146|L-2147|L-2148|L-2149|L-2150|L-2151|L-2152|L-2153|L-2154|L-2155|L-2156|L-2157|L-2158|L-2159|L-2160|L-2161|L-2162|L-2163|L-2164|L-2165|L-2166|L-2167|L-2168|L-2169|L-2171|L-2172|L-2173|L-2174|L-2175|L-2176|L-2177|L-2178|L-2179|L-2180|L-2181|L-2210|L-2211|L-2212|L-2213|L-2214|L-2220|L-2221|L-2222|L-2223|L-2224|L-2225|L-2226|L-2227|L-2228|L-2229|L-2230|L-2231|L-2232|L-2233|L-2240|L-2241|L-2261|L-2262|L-2263|L-2264|L-2265|L-2266|L-2267|L-2268|L-2269|L-2270|L-2271|L-2273|L-2308|L-2309|L-2310|L-2311|L-2312|L-2313|L-2314|L-2316|L-2318|L-2320|L-2322|L-2323|L-2324|L-2326|L-2327|L-2328|L-2329|L-2330|L-2331|L-2332|L-2333|L-2334|L-2335|L-2336|L-2337|L-2338|L-2339|L-2340|L-2341|L-2342|L-2343|L-2344|L-2345|L-2346|L-2347|L-2348|L-2349|L-2350|L-2351|L-2352|L-2353|L-2354|L-2355|L-2356|L-2358|L-2359|L-2360|L-2361|L-2380|L-2381|L-2409|L-2410|L-2411|L-2412|L-2413|L-2414|L-2415|L-2417|L-2418|L-2419|L-2420|L-2422|L-2423|L-2424|L-2426|L-2427|L-2428|L-2429|L-2430|L-2431|L-2432|L-2433|L-2435|L-2440|L-2441|L-2442|L-2444|L-2445|L-2447|L-2448|L-2449|L-2450|L-2451|L-2452|L-2453|L-2511|L-2512|L-2514|L-2515|L-2516|L-2517|L-2518|L-2519|L-2520|L-2521|L-2522|L-2523|L-2525|L-2526|L-2527|L-2528|L-2530|L-2531|L-2532|L-2533|L-2534|L-2535|L-2536|L-2537|L-2538|L-2539|L-2540|L-2541|L-2542|L-2543|L-2544|L-2546|L-2547|L-2548|L-2549|L-2550|L-2551|L-2552|L-2553|L-2554|L-2555|L-2556|L-2557|L-2558|L-2559|L-2560|L-2561|L-2562|L-2563|L-2564|L-2565|L-2566|L-2609|L-2610|L-2611|L-2612|L-2613|L-2614|L-2615|L-2616|L-2619|L-2620|L-2621|L-2622|L-2623|L-2624|L-2625|L-2626|L-2627|L-2628|L-2629|L-2630|L-2631|L-2634|L-2635|L-2636|L-2651|L-2652|L-2653|L-2661|L-2662|L-2663|L-2664|L-2665|L-2666|L-2667|L-2668|L-2669|L-2670|L-2671|L-2672|L-2673|L-2680|L-2711|L-2712|L-2713|L-2714|L-2715|L-2716|L-2717|L-2718|L-2719|L-2720|L-2721|L-2722|L-2724|L-2725|L-2726|L-2728|L-2729|L-2730|L-2731|L-2732|L-2733|L-2734|L-2736|L-2737|L-2738|L-2739|L-2740|L-2761|L-2762|L-2763|L-2764|L-2850|L-2887|L-2888|L-2889|L-2900|L-2910|L-2911|L-2912|L-2913|L-2914|L-2918|L-2919|L-2920|L-2921|L-2922|L-2925|L-2926|L-2928|L-2929|L-2930|L-2931|L-2932|L-2933|L-2934|L-2935|L-2936|L-2937|L-2938|L-2939|L-2940|L-2941|L-2942|L-2946|L-2950|L-2951|L-2952|L-2953|L-2954|L-2955|L-2956|L-2957|L-2958|L-2959|L-2960|L-2961|L-2963|L-2964|L-2965|L-2966|L-2967|L-2968|L-2969|L-2970|L-2971|L-2972|L-2973|L-2974|L-2975|L-2976|L-2977|L-2981|L-2982|L-2983|L-2984|L-2985|L-2986|L-2987|L-2988|L-2990|L-2991|L-2992|L-2997|L-2998|L-2999|L-8154
Machtum,,L-6840|L-6841
Mamer,,L-8201|L-8209|L-8210|L-8211|L-8212|L-8213|L-8214|L-8215|L-8216|L-8217|L-8218|L-8219|L-8220|L-8221|L-8222|L-8223|L-8224|L-8225|L-8226|L-8227|L-8228|L-8229|L-8230|L-8232|L-8233|L-8234|L-8235|L-8236|L-8237|L-8238|L-8239|L-8240|L-8244|L-8245|L-8246|L-8247|L-8248|L-8249|L-8250|L-8251|L-8252|L-8253|L-8254|L-8255|L-8260|L-8261|L-8262|L-8263|L-8264|L-8265|L-8266|L-8267|L-8268|L-8269|L-8270|L-8271|L-8272|L-8273
Manternach,,L-6850|L-6851
Marienthal,,L-7411
Marnach,,L-9763|L-9764
Marscherwald,,L-6239
Martelange-Haut,,L-8823
Masseler,,L-9668
Maulusmuehle,,L-9974
Mecher (Clervaux),,L-9765
Mecher (Haute Sure),,L-9669
Medernach,,L-7634|L-7660|L-7661|L-7662|L-7663|L-7664
Medingen,,L-5328
Meispelt,,L-8291|L-8292
Mensdorf,,L-6918|L-6930|L-6931|L-6933|L-6934
Merkholtz,,L-9670
Mersch,,L-7409|L-7410|L-7473|L-7501|L-7502|L-7512|L-7513|L-7514|L-7515|L-7517|L-7519|L-7520|L-7521|L-7522|L-7523|L-7525|L-7526|L-7531|L-7533|L-7534|L-7535|L-7536|L-7541|L-7542|L-7543|L-7544|L-7545|L-7553|L-7554|L-7555|L-7556|L-7557|L-7559|L-7560|L-7561|L-7562|L-7563|L-7564|L-7565|L-7566|L-7568|L-7569|L-7570|L-7571|L-7572|L-7599
Merscheid (Heiderscheid),,L-9165
Merscheid (Puetscheid),,L-9380
Mertert,,L-6670|L-6671|L-6672|L-6673|L-6674|L-6675|L-6676|L-6677|L-6680|L-6681|L-6682|L-6683|L-6684|L-6685|L-6686|L-6687|L-6688|L-6689|L-6693
Mertzig,,L-9007|L-9166|L-9167|L-9168|L-9169|L-9170
Meysembourg,,L-7461
Michelau,,L-9171|L-9172
Michelbouch,,L-9173
Moersdorf,,L-6690|L-6691|L-6692
Moesdorf (Mersch),,L-7462|L-7464
Moestroff,,L-9381|L-9382
Mompach,,L-6695
Mondercange,,L-3901|L-3909|L-3910|L-3911|L-3912|L-3913|L-3914|L-3915|L-3916|L-3917|L-3918|L-3919|L-3920|L-3921|L-3922|L-3923|L-3924|L-3925|L-3926|L-3927|L-3928|L-3929|L-3930|L-3931|L-3932|L-3933|L-3934|L-3935|L-3936|L-3937|L-3938|L-3939|L-3940|L-3941|L-3943|L-3944
Mondorf-Les-Bains,,L-5601|L-5602|L-5610|L-5611|L-5612|L-5613|L-5614|L-5615|L-5616|L-5617|L-5618|L-5619|L-5620|L-5626|L-5627|L-5628|L-5629|L-5630|L-5631|L-5632|L-5633|L-5634|L-5635|L-5636|L-5637|L-5638|L-5639|L-5640|L-5650|L-5651|L-5652|L-5653|L-5654|L-5655|L-5656|L-5657|L-5658|L-5659
Moutfort,,L-5330|L-5331|L-5332|L-5333|L-5334|L-5335|L-5336|L-5337|L-5339|L-5341
Muenschecker,,L-6858
Mullendorf,,L-7302|L-7305|L-7306|L-7312|L-7317|L-7321|L-7324|L-7326|L-7332
Mullerthal,,L-6245
Munsbach,,L-5365|L-5366|L-5372|L-5374
Munshausen,,L-9766
Nachtmanderscheid,,L-9461
Nagem,,L-8544
Neidhausen,,L-9837
Neuhaeusgen,,L-5290
Neunhausen,,L-9671
Niederanven,,L-6905|L-6906|L-6940|L-6941|L-6942|L-6943|L-6944|L-6945|L-6946|L-6947|L-6948
Niederdonven,,L-5433|L-5434
Niederfeulen,,L-9045|L-9156|L-9175|L-9176|L-9177
Niederpallen,,L-8545
Niederwampach,,L-9672
Nocher,,L-9674
Noerdange,,L-8505|L-8550|L-8551
Noertrange,,L-9676
Noertzange,,L-3380|L-3382|L-3383|L-3384|L-3385|L-3386
Nommern,,L-7465
Nospelt,,L-8390|L-8391|L-8392
Nothum,,L-9678
Oberanven,,L-6945|L-6969|L-6970|L-6976|L-6977|L-6982|L-6986|L-6992|L-6996|L-6997|L-6999
Oberdonven,,L-5435
Oberfeulen,,L-9179|L-9180
Oberkorn,,L-4504
Oberpallen,,L-8552
Oberwampach,,L-9673
Oetrange,,L-5324|L-5331|L-5351|L-5352|L-5353|L-5355
Olingen,,L-6950|L-6951
Olm,,L-8312|L-8315|L-8316|L-8317|L-8319|L-8321|L-8322|L-8323|L-8324|L-8327|L-8332|L-8333|L-8338|L-8339|L-8340|L-8341|L-8342|L-8343|L-8344|L-8393|L-8394
Openthalt,,L-7425
Ospern,,L-8540
Osweiler,,L-6570|L-6571|L-6572
Peppange,,L-3260|L-3390|L-3391
Perle,,L-8802|L-8824|L-8825|L-8826
Petange,,L-4701|L-4702|L-4707|L-4708|L-4709|L-4710|L-4711|L-4712|L-4713|L-4714|L-4715|L-4716|L-4717|L-4718|L-4719|L-4720|L-4721|L-4722|L-4730|L-4731|L-4732|L-4733|L-4734|L-4735|L-4736|L-4737|L-4738|L-4739|L-4740|L-4741|L-4742|L-4743|L-4744|L-4745|L-4750|L-4751|L-4752|L-4753|L-4754|L-4755|L-4756|L-4757|L-4758|L-4759|L-4760|L-4761|L-4762|L-4763|L-4770|L-4771|L-4772|L-4773|L-4774|L-4775|L-4776|L-4777|L-4778|L-4779|L-4780|L-4781|L-4782|L-4783|L-4784|L-4785|L-4786
Petit-Nobressart,,L-8557
Pettingen,,L-7463
Pintsch,,L-9767
Pissange,,L-3985
Platen,,L-8558|L-8611|L-8615
Pommerloch,,L-9638
Pontpierre,,L-4390|L-4391|L-4392|L-4393|L-4394|L-4395|L-4396|L-4397|L-4398
Posselt,,L-6562
Pratz,,L-8612|L-8613
Prettingen,,L-7460
Puetscheid,,L-9461|L-9462
Rambrouch,,L-8801|L-8805|L-8806
Rameldange,,L-6972|L-6973|L-6974|L-6975|L-6979|L-6980|L-6981|L-6987|L-6990|L-6991|L-6995|L-6996
Reckange (Mersch),,L-7425|L-7525|L-7595|L-7596|L-7597|L-7598
Reckange-Sur-Mess,,L-4980|L-4981|L-4982
Redange-Sur-Attert,,L-8501|L-8506|L-8507|L-8508|L-8509|L-8510|L-8511
Reichlange,,L-8558
Reimberg,,L-8614
Reisdorf,,L-9204|L-9390|L-9391
Remerschen,,L-5439|L-5440|L-5441|L-5445|L-5506
Remich,,L-5422|L-5501|L-5511|L-5512|L-5513|L-5514|L-5515|L-5516|L-5517|L-5518|L-5519|L-5520|L-5521|L-5522|L-5530|L-5531|L-5532|L-5533|L-5534|L-5535|L-5536|L-5537|L-5538|L-5539|L-5540|L-5544|L-5548|L-5549|L-5550|L-5551|L-5552|L-5553|L-5554|L-5555|L-5556|L-5557|L-5558|L-5559|L-5560|L-5561|L-5570|L-5571|L-5572|L-5573|L-5574|L-5575|L-5576|L-5577
Reuland,,L-7670
Reuler,,L-9768
Riesenhof,,L-8821
Rindschleiden,,L-8831
Ringel,,L-9181
Rippig,,L-6246
Rippweiler,,L-8720
Rodange,,L-4801|L-4802|L-4804|L-4805|L-4806|L-4807|L-4808|L-4809|L-4810|L-4811|L-4812|L-4813|L-4814|L-4815|L-4818|L-4819|L-4820|L-4822|L-4823|L-4824|L-4825|L-4826|L-4829|L-4830|L-4831|L-4832|L-4833|L-4837|L-4838|L-4839|L-4842|L-4843|L-4844|L-4845|L-4846|L-4847|L-4849|L-4850|L-4853
Rodenbourg,,L-6955
Roder,,L-9769
Rodershausen,,L-9839
Roedgen,,L-3392|L-3393
Roedt,,L-5442
Roeser,,L-3206|L-3394|L-3395|L-3396|L-3397|L-3398
Rolling,,L-5443
Rollingen,,L-7511|L-7516|L-7518|L-7532|L-7537|L-7539|L-7540|L-7543|L-7546|L-7558|L-7567
Rombach-Martelange,,L-8832
Roodt (Ell),,L-8560
Roodt (Septfontaines),,L-8398
Roodt-Sur-Syre,,L-6901|L-6910|L-6911|L-6912|L-6913|L-6914|L-6915|L-6916|L-6917|L-6919|L-6921
Roost,,L-7759
Rosport,,L-6406|L-6558|L-6579|L-6580|L-6581|L-6582|L-6583
Roullingen,,L-9681
Rumelange,,L-3701|L-3710|L-3711|L-3712|L-3713|L-3714|L-3715|L-3716|L-3717|L-3718|L-3719|L-3720|L-3721|L-3722|L-3723|L-3724|L-3725|L-3726|L-3727|L-3728|L-3729|L-3730|L-3733|L-3734|L-3735|L-3736|L-3737|L-3738|L-3739|L-3740|L-3741|L-3742|L-3743|L-3744|L-3750|L-3751|L-3752|L-3753|L-3754|L-3755
Rumlange,,L-9770
Saeul,,L-7470|L-7471|L-7506
Sandweiler,,L-5201|L-5211|L-5212|L-5213|L-5214|L-5215|L-5216|L-5217|L-5218|L-5219|L-5220|L-5221|L-5222|L-5230|L-5231|L-5232|L-5233|L-5234|L-5235|L-5236|L-5237|L-5238|L-5239|L-5240|L-5241|L-5243|L-5250|L-5251|L-5252|L-5253|L-5254|L-5255|L-5256|L-5280|L-5290
Sanem,,L-4984|L-4985|L-4986|L-4987|L-4988|L-4989|L-4990|L-4991|L-4992|L-4993
Sassel,,L-9976
Savelborn,,L-6380
Schandel,,L-8620
Scheidel,,L-9182
Scheidgen,,L-6250|L-6251
Schengen,,L-5444|L-5445
Schieren,,L-7738|L-9008|L-9115|L-9116|L-9117|L-9118|L-9119|L-9120|L-9121|L-9122|L-9123|L-9124|L-9125|L-9126|L-9127|L-9128|L-9129|L-9130|L-9131|L-9132|L-9133|L-9134|L-9135|L-9136|L-9184
Schifflange,,L-3801|L-3810|L-3811|L-3812|L-3813|L-3814|L-3815|L-3816|L-3817|L-3818|L-3819|L-3820|L-3821|L-3822|L-3823|L-3824|L-3825|L-3830|L-3831|L-3832|L-3833|L-3834|L-3835|L-3836|L-3837|L-3838|L-3839|L-3840|L-3841|L-3842|L-3843|L-3844|L-3850|L-3851|L-3852|L-3853|L-3854|L-3855|L-3856|L-3857|L-3858|L-3859|L-3860|L-3861|L-3862|L-3870|L-3871|L-3872|L-3873|L-3874|L-3875|L-3876|L-3877|L-3878|L-3879|L-3880|L-3881|L-3882|L-3883
Schiltzberg,,L-6175
Schimpach,,L-9684
Schleif,,L-9654
Schlindermanderscheid,,L-9183
Schoenfels,,L-7473
Schoos,,L-7475
Schouweiler,,L-4994|L-4995|L-4996|L-4997|L-4998|L-4999
Schrassig,,L-5299|L-5360|L-5361|L-5362|L-5363|L-5364
Schrondweiler,,L-9184
Schuttrange,,L-5367|L-5368|L-5369|L-5370|L-5371|L-5372|L-5373
Schwebach,,L-8561
Schwebsingen,,L-5447
Schweich,,L-8562
Selscheid,,L-9682
Selz,,L-9359
Senningen,,L-6960|L-6961|L-6962
Senningerberg,,L-1209|L-1239|L-1245|L-1259|L-1360|L-1448|L-1638|L-1646|L-1670|L-1709|L-1736|L-2170|L-2315|L-2357|L-2434|L-2443|L-2513|L-2633
Septfontaines,,L-8363|L-8395|L-8396
Siebenaler,,L-9840
Soleuvre,,L-4405|L-4410|L-4411|L-4413|L-4414|L-4415|L-4417|L-4418|L-4420|L-4421|L-4423|L-4432|L-4433|L-4434|L-4435|L-4437|L-4438|L-4439|L-4440|L-4441|L-4442|L-4447|L-4448|L-4449|L-4459|L-4460|L-4463|L-4464|L-4465|L-4466|L-4467|L-4469|L-4470|L-4475|L-4479|L-4480|L-4482|L-4483|L-4484|L-4485|L-4486|L-4492|L-4493|L-4521
Sonlez,,L-9647
Sprinkange,,L-4994|L-4998|L-4999
Stadtbredimus,,L-5429|L-5450|L-5451
Staffelstein,,L-2712
Stegen,,L-9186
Steinfort,,L-8401|L-8410|L-8411|L-8412|L-8413|L-8414|L-8415|L-8420|L-8421|L-8422|L-8423|L-8424|L-8435|L-8436|L-8437|L-8438|L-8440|L-8441|L-8442|L-8443|L-8444|L-8445|L-8447|L-8448|L-8449|L-8450|L-8451|L-8452|L-8453
Steinheim,,L-6585|L-6586|L-6587
Steinsel,,L-7206|L-7302|L-7303|L-7307|L-7309|L-7312|L-7315|L-7316|L-7317|L-7319|L-7320|L-7321|L-7322|L-7323|L-7326|L-7327|L-7331|L-7333|L-7336|L-7339|L-7343|L-7344|L-7346
Stockem,,L-9771
Stolzembourg,,L-9463|L-9464
Strassen,,L-1445|L-1512|L-1525|L-2361|L-2409|L-2410|L-2510|L-8001|L-8002|L-8008|L-8009|L-8010|L-8011|L-8012|L-8013|L-8014|L-8015|L-8016|L-8017|L-8018|L-8019|L-8020|L-8021|L-8022|L-8023|L-8024|L-8025|L-8026|L-8027|L-8028|L-8029|L-8030|L-8031|L-8032|L-8033|L-8034|L-8035|L-8036|L-8037|L-8038|L-8039|L-8040|L-8041|L-8042|L-8043|L-8044|L-8045|L-8046|L-8047|L-8048|L-8049|L-8069
Stuppicht,,L-6155
Surre,,L-9687
Syren,,L-5898|L-5899
Tadler,,L-9181
Tandel,,L-9395
Tarchamps,,L-9689
Tetange,,L-3705|L-3761|L-3762|L-3763|L-3764|L-3765|L-3766|L-3767|L-3768|L-3770|L-3771|L-3772|L-3773|L-3774|L-3775|L-3776|L-3780|L-3781|L-3782|L-3784|L-3786|L-3787|L-3788|L-3789|L-3790
Trintange,,L-5460
Troine,,L-9772
Troine-Route,,L-9773
Troisvierges,,L-9901|L-9903|L-9905|L-9906|L-9907|L-9908|L-9909|L-9910|L-9911|L-9912|L-9913|L-9999
Tuntange,,L-7480|L-7481|L-8293
Uebersyren,,L-5376|L-5377|L-5378|L-5380
Urspelt,,L-9774
Useldange,,L-8701|L-8705|L-8706|L-8707|L-8708
Vianden,,L-9401|L-9405|L-9406|L-9407|L-9408|L-9409|L-9410|L-9411|L-9412|L-9414|L-9415|L-9416|L-9417|L-9418|L-9419|L-9420|L-9421|L-9422|L-9423|L-9424|L-9425|L-9426|L-9440
Vichten,,L-9173|L-9188|L-9189|L-9190
Wahl,,L-8818|L-8838
Wahlhausen,,L-9836|L-9841
Waldbillig,,L-7680|L-7681
Waldbredimus,,L-5465
Waldhof,,L-2712
Walferdange,,L-7201|L-7209|L-7220|L-7222|L-7224|L-7226|L-7238|L-7253|L-7256|L-7257|L-7269|L-7274
Wallendorf-Pont,,L-9392
Walsdorf,,L-9465
Warken,,L-9018|L-9019|L-9028|L-9029|L-9030|L-9090
Wasserbillig,,L-6601|L-6610|L-6611|L-6612|L-6613|L-6614|L-6615|L-6616|L-6617|L-6618|L-6619|L-6620|L-6630|L-6631|L-6632|L-6633|L-6634|L-6635|L-6636|L-6637|L-6638|L-6645|L-6646|L-6647|L-6648|L-6649|L-6650|L-6651|L-6695
Watrange,,L-9690
Wecker,,L-6852|L-6868|L-6869|L-6870|L-6871
Weicherdange,,L-9765|L-9775
Weidingen,,L-9517|L-9518|L-9535|L-9553|L-9572|L-9576
Weiler (Puetscheid),,L-9466
Weiler (Wincrange),,L-9982
Weiler-La-Tour,,L-5770|L-5771|L-5772|L-5773|L-5774|L-5775
Weilerbach,,L-6590
Weiswampach,,L-9990|L-9991|L-9992
Welfrange,,L-5698
Wellenstein,,L-5470|L-5471
Welscheid,,L-9191
Welsdorf,,L-7713|L-7723
Wemperhardt,,L-9999
Weydig,,L-6880
Weyer,,L-6155
Wickrange,,L-3980
Wiltz,,L-9501|L-9502|L-9510|L-9511|L-9512|L-9513|L-9514|L-9515|L-9516|L-9519|L-9520|L-9521|L-9522|L-9523|L-9530|L-9531|L-9532|L-9533|L-9534|L-9536|L-9537|L-9538|L-9539|L-9540|L-9541|L-9542|L-9543|L-9544|L-9545|L-9550|L-9551|L-9552|L-9554|L-9555|L-9556|L-9557|L-9558|L-9559|L-9560|L-9570|L-9571|L-9573|L-9574|L-9575|L-9577|L-9696
Wilwerdange,,L-9980
Wilwerwiltz,,L-9776
Wincrange,,L-9703|L-9780
Windhof (Koerich),,L-8399
Winseler,,L-9696
Wintrange,,L-5495
Wolper,,L-6252
Wolwelange,,L-8833
Wormeldange,,L-5480|L-5481|L-5482|L-5483|L-5488|L-5489|L-5507
Wormeldange-Haut,,L-5485
Zittig,,L-6255
