name,districts,zipcodes
Bov,,2271
Gorski dolen Trumbesh,,5131
Ljaskovo,,4818
Ablanica,,2932|5574|4645
Abrit,,9407
Avramovo,,2795|6797
Avren,,6930|9135
Agatovo,,5431
Azmanite,,5431
Ajdemir,,7538
Ajrovo,,6639
Ajtos,,8500
Akandzhievo,,4483
Akacievo,,3727
Aksakovo,,9154
Alamovci,,4984
Albanci,,6850
Alvanovo,,7752
Aldomirovci,,2222
Aleko Konstantinovo,,4495
Alekovo,,7555|5288
Aleksandrija,,9404
Aleksandrovo,,8211|6351|8653|5560|9829|6154|7761|5289
Aleksandur Stambolijski,,9565
Alendarova,,4621
Aligovska,,4787
Alino,,2019
Altimir,,3251
Alfatar,,7570
Alcek,,9496
Angel vojvoda,,6373
Angelarij,,9483
Angelov,,5342
Anevo,,4331
Antimovo,,7628|3776
Anton,,2089
Antonovo,,7970
Aplaci,,5094
Aprilovo,,2128|6281|7864
Aprilci,,6884|5641|4445
Arbanasi,,5029
Arda,,4790
Ardino,,6750
Arzan,,2368
Arkovna,,9246
Armenite,,5348
Armjankovci,,5363
Arnautito,,6069
Arpadzhik,,4922
Archar,,3770
Asen,,6149
Asenovgrad,,4230
Asenovec,,8933
Asenovo,,8667|5957|5159
Asenovci,,5913
Asparukhovo,,8465|3661|5914|9260
Atija,,8140
Atolovo,,5683
Austa,,6821
Akheloj,,8217
Akhmatovo,,4128
Akhrjansko,,6761
Akhtopol,,8280
Baba Stana,,5632
Baba Tonka,,7861
Babek,,4156
Babino,,2683
Babinska reka,,2668
Babinci,,5726
Babica,,2365
Bablon,,4774
Babovo,,7068
Babuk,,7573
Babjak,,2784
Bagalevci,,5094
Bagra,,6749
Bagrenci,,2530
Bagrilci,,6944
Bagrjanka,,6819
Badevci,,5093
Badino,,2676
Baeva livada,,5442
Baevci,,5300|5087
Bazhdari,,5095
Bajkal,,5861
Bajkalsko,,2427
Bajkovo,,9767
Bajlovo,,2133
Bakalite,,6693
Bak'ovo,,2295
Balabanovo,,6816
Balabansko,,5615
Balabanchevo,,8471
Balaleja,,5370
Balanite,,5300
Balanovo,,2680
Balvan,,5064
Balvancite,,5388
Baldevo,,2948
Balej,,3797
Balik,,9485
Balinovci,,5343
Balkan,,6368
Balkan makhala,,4874
Balkanec,,5364
Balkanski,,7265
Balkanci,,9549|5162
Baluci,,5081
Balchik,,9600
Balsha,,1748
Bal'ovci,,2060
Baljuvica,,3529
Banari,,5370
Bangejci,,5358
Banevo,,8125
Baniska,,7167
Banite,,4940
Banica,,3077
Banichan,,2905
Banishhe,,2388
Bankovec,,7997
Bankovci,,5300
Bankja,,2466|1320
Banovo,,9148
Bansko,,2770
Banchovci,,2060
Banja,,8239|2778|4523|4360|8914
Barakovo,,2634
Baraci,,6910
Barutin,,4830
Basarbovo,,7071
Baskalci,,2883
Bata,,8218
Batak,,4580|5228
Batanovci,,2340
Batin,,7172
Batishnica,,7169
Batovo,,9364
Batoshevo,,5470
Batulija,,2295
Batulci,,5764
Baurene,,3068
Bakhalin,,2219
Bakhovica,,5567
Bakhreci,,5367
Bacova makhala,,5927
Bachevo,,2769
Bachkovo,,4251
Bashevo,,6777
Bashhino,,6669|7619|6068
Bajachevo,,7745
Bdinci,,9381
Bebrovo,,5084
Beglezh,,5872
Begovo,,4352
Begunovci,,2395
Begunci,,4359
Beden,,4817
Bedzhene,,9924
Bedrovo,,6716
Bezhanovo,,9567|5792
Bezvodica,,9637
Bezvodno,,6718
Bezden,,2236
Bezdenica,,3454
Bezmer,,9480|8637
Bejkovci,,5094
Bekriite,,5300
 Bel kamen,,2793
Bela,,3759
 Bela Rada,,3731
Belanica,,2453
Belasica,,2881
Belashhica,,4124
Belgun,,9690
 Belev dol,,4738
Belevekhchevo,,2800
Belevren,,8345
Belene,,5930
Belenci,,5783
 Beli breg,,3441
 Beli brod,,3447
 Beli brjag,,6262
 Beli vir,,6702
 Beli dol,,6990
 Beli izvor,,3040
 Beli Iskur,,2011
 Beli Lom,,7293
 Beli Osum,,5662
 Beli plast,,6689
Belila,,8316
Belimel,,3462
Belinci,,7432
Belica,,2780|5363|6557|4242|2062|7643
Belish,,5628
 Belo pole,,2709|3961
Belovec,,7321
Belovica,,4182
Belovo,,4470
Belogradec,,9230
Belogradchik,,3900
Belodol,,8219
Belozem,,4130
Belokopitovo,,9801
Belomorci,,7917
Belomuzhite,,5340
Belopolci,,6951
Belopoljane,,6984
Belopopci,,2132
Beloslav,,9150
Belotinci,,3497
Belcov,,7133
Belchevci,,5035
Belchin,,2025
 Belchinski bani,,2024
Bel'ovo,,2824
Beljakovec,,5031
Beljanovo,,7134
Benkovski,,9380|6865|4201|2096|6055|9133
Berajnci,,2488
Berende,,2435|2212
 Berende izvor,,2212
Berievo,,5438
Berkovica,,3500
Berkovski,,7857
Berkovci,,5093
Beronovo,,8448
Bersin,,2587
Beslen,,2934
Besnurka,,6698
Bivolare,,5849
Bivoljane,,6837
Bizhovci,,5350|5035
Bikovo,,8922
Bilinci,,2383
Bilka,,8551
Bilkini,,5370
Bilo,,9691
Biljanska,,4789
Binkos,,8855
Birkova,,4650
Biser,,6470
Biserci,,7334
Bistra,,7557|7777
Bistrenci,,7121
Bistrec,,8334|9412
Bistrilica,,3527
Bistrica,,2724|2644|1744
Bistrogled,,6769
Blagovo,,3488|9812
Blagoevgrad,,2700
Blagoevo,,7275|5178
Blagun,,6955
Blazhievo,,2678
Blatec,,2548|8878
Blateshnica,,2441
Blatino,,2617
Blatnica,,4449
Blato,,2657
Blatska,,2941
Blenika,,6742
Bliznak,,8365
Bliznaci,,9787|9132
Bliznec,,8925
Bluskovo,,9240
Bluskovci,,5073
Boazut,,5453
Bobevci,,5300
Bobeshino,,2567
 Bobov dol,,2670
Bobovec,,9616
Boboraci,,2454
Boboshevo,,2660
Bov,,2270
Bogatino,,6750
Bogatovo,,5421
Bogdan,,9348|4343
Bogdanica,,4115
Bogdanlija,,2116
 Bogdanov dol,,2341
Bogdanovo,,8337|8948
Bogdanovci,,2060
Bogdansko,,5084
Bogdanci,,7449|7611
Bogdanchovci,,5300
Bogojna,,2460
Bogolin,,2931
Bogomil,,6460
Bogomilovo,,6097
Bogomilci,,7458
Bogomolsko,,7997
Bogorovo,,8687|7542
Bogorodica,,2850
Bogoslov,,2509
Bogutevo,,4855
Bog'ovci,,2235
Bodenec,,3128
Bodrovo,,6446
Boevo,,4964
Boerica,,2066
Bozhak,,6744
Bozhan,,9475
Bozhanovo,,9677
Bozhdovo,,2811
Bozhevci,,8844
Bozhenica,,2157
Bozhencite,,5349
Bozhichen,,7089
Bozhurec,,9656
Bozhurica,,5848
Bozhurishhe,,2227
Bozhurka,,7765
Bozhurluk,,5931
Bozhurovo,,9368|7335|9874
Bozhurci,,6704
Bozadzhii,,8872
Bozvelijsko,,9273
Bozduganovo,,6269
Boz'ova,,4654
Boil,,7683
Bojkovec,,2181
Bojkovo,,4103
Bojkovci,,5080
Bojnik,,6958
Bojnica,,3840
Bojno,,6730
Bojnovci,,5300
 Bojchevi kolibi,,5050
Bojcheta,,5309
Bojchinovci,,3430
Bojchovci,,5038
Bokilovci,,3517
Boltata,,5340
Boljarino,,4132
Boljarovo,,8720
 Boljarski izvor,,6474
Boljarsko,,8631
Boljarci,,6681|4114|9124
Bonevo,,9472
Bor,,4233
Borec,,4144
Borie,,4961
Borika,,2064|4926
Boriki,,5335
Borikovo,,4762
Borilovec,,3838
Borilovo,,6046
Borima,,5672
Borimechkovo,,4464
Borino,,4824
Borinovo,,4905
Borinci,,8999
Borislav,,5889
Borislavci,,6542
Borisovo,,8731|7064
Bornarevo,,2407
 Borov dol,,8861
Borovan,,3240
Borovec,,2626
Borovina,,4923
Borovica,,6790|3955
Borovichene,,2884
Borovo,,2904|4863|7174|6070
Borovsko,,6698
Borovci,,3528
Borskoto,,5333
Borushhica,,6187
Borci,,9752
Borjana,,9255
Bosevci,,5084
Bosilica,,6697
Bosilkovo,,8446|4945
Bosilkovci,,7128
Bosna,,7662
Bosnek,,2345
Bostanite,,3952
Bostanci,,6716
Bostina,,4745
Botevgrad,,2140
Botevo,,8638|3634|9159|3746|3353
Botrov,,7425
Botunja,,3046
Boturche,,6989
Bokhova,,2483
Bokhot,,5891
Bochkovci,,5035
Boshulja,,4481
Bojadzhik,,8640
Bojan,,9771
 Bojan Botevo,,6374
Bojana,,9183
Bojanovo,,8730|3832
Bojanovci,,5041
Bojanci,,4244
Bradvari,,7568
Braknica,,7855
Brak'ovci,,2251
Branipole,,4109
Branica,,6463
Branichevo,,9760
Branishhe,,9361
Brankovci,,3824|5041
Bratan,,8983
Bratanica,,4485
Bratovo,,8111|7764
Bratushkovo,,2222
 Bratja Daskalovi,,6250
 Bratja Kunchevi,,6057
Bracigovo,,4579
Bregare,,5862
Bregovo,,3790|3790
Brezhana,,6850
Brezhani,,2750
Brezhnicite,,5360
Breza,,4959
Breze,,2278|4849
Brezen,,6792
Breznik,,2360
Breznica,,2972
 Breznishki izvor,,2385
Brezovdol,,2292
Brezovo,,4160|5083
Brenica,,5834|7649
Brest,,2558|5971
Brestak,,9290
Brestaka,,2092
Breste,,5992
Brestnik,,4107
Brestnica,,9484|5761
Brestova,,6194
Brestovene,,7331
Brestovec,,5884
Brestovica,,4224|7177
Brestovo,,2735|5551
Brod,,6442
Brodilovo,,8282
Brosh,,6737
Brusarci,,3680
Brusevci,,6488
Brusen,,2185|3126
Brusino,,6595
Brusnik,,2372
Brunecite,,5342
Bruchkovci,,5081
Brushlen,,7069
Brushljan,,8357
Brushljanica,,5844
Brushhen,,4821
Brjagovec,,6929
Brjagovica,,5152
Brjagovo,,6355|4294
Brjast,,6434
Brjastovec,,8113
Brjastovo,,9647|6345|8935
Bubino,,6582
Budilci,,2844
Buzovgrad,,6159
Buzjakovci,,2060
Bujnovica,,5097
Bujnovo,,4812|7753
Bujnovci,,5097
Buk,,6966
Bukak,,7996
Bukata,,4763
Bukacite,,4782
 Bukova poljana,,4935
Bukovec,,3678|2293|3762|3242|5063
Bukovluk,,5839
Bukovo,,2915|4295|4930
Bukorovci,,2253
Bulair,,9115
Bunovo,,2539|2074
Buncevo,,2792
Buranovo,,2628
Burgas,,8000
Burevo,,4998
Burja,,5425
Businci,,2486
Busmanci,,1731
Butan,,3350
Butovo,,5232
Butreva,,4652
Butroinci,,2473
Bukhovo,,2130
Bukhovci,,7757
 Buchin prokhod,,2256
Buchino,,2742
Buchukovci,,5380
Budeshhe,,6090
Buzovec,,3635|7168
Buzovica,,2555
Buzun,,7077
Bulgaranovo,,7944
Bulgarevo,,9660
Bulgarene,,5583|5923|6273
Bulgari,,8274|5441
Bulgarin,,6460
Bulgarka,,7544
Bulgarovo,,8520
 Bulgarska poljana,,8788
 Bulgarski izvor,,5733
 Bulgarsko Slivovo,,5284
Bulgarchevo,,2746
Bunzareto,,6186
Burdarevo,,9117
Burdarite,,5360
 Burdarski geran,,3259
Burdeni,,5365
Burdo,,2060
Burdokva,,7448
 Burza reka,,6710
Burzeja,,6884
Burzina,,3255
Burzica,,9274
Burzija,,3520
Burkach,,5877
Burkachevo,,3245
Burlozhnica,,2222
Burlja,,2255
Burchevo,,4965
Buta,,4527
Bjaga,,4587
 Bjal brjag,,9824
 Bjal izvor,,6770|6073
 Bjal kladenec,,6377|8961
Bjala,,7100|8850|9101
 Bjala voda,,8361|5921
 Bjala palanka,,8848
 Bjala poljana,,6662
 Bjala reka,,4285|9882|4966|5237
 Bjala Slatina,,3200
 Bjala cherkva,,5220
Bjalgradec,,6590
Bjalka,,6656
Bjalkovo,,5344
Bjalkovci,,5084
 Bjalo pole,,6083
Vazovo,,7422
Vakarel,,2060
Vaklino,,9672
Vaklinovo,,2957
Vaksevo,,2590
Valevci,,5462
Valeto,,5099
Varana,,5911
Varvara,,8278|4492
Vardim,,5281
Vardun,,7780
Varna,,9000
Varnenci,,7638
Varnik,,6536
Varovnik,,8338
 Vasil Drumev,,9814
 Vasil Levski,,4363|7571|6068|7749
Vasilevo,,9543
 Vasilkovska makhala,,5576
Vasilovci,,3658|2238
Vasil'ovo,,5723
Vaskovo,,6549
Vedrare,,4364
Vedrina,,9355
Vedrovo,,8447
Vezenkovo,,8457
Vekilski,,9941
Velenci,,5350
Veleshani,,6727
Velika,,8271
Velikan,,6431
Velikdenche,,6845|7916
 Veliki Preslav,,9850
 Veliko Turnovo,,5000
Velikovo,,9547|6282
Velikovci,,7964
Velingrad,,4600
Velino,,9793
Velinovo,,2476
Velislav,,8458
Velichka,,7941
Velichkovo,,4479|9263
Velkovo,,5365
Velkovci,,5343|2375|5097
Velchevo,,5643|5032
Velchovci,,5367
Vel'ovo,,7985
Veljuvci,,5070
Veljushhec,,2849
Venelin,,9119
Venec,,8473|9751|6079
Venkovec,,2066
Venchan,,9219
Veren,,6244
Verenci,,7957
Verinsko,,2063
Versko,,6710
Veselec,,7327|7942
Veselie,,8145
Veselina,,7289|5094
Veselinovo,,9828|9828
Veslec,,3053
Vetovo,,7080
Vetren,,8127|2579|4480|7588|6175
 Vetren dol,,4493
Vetrino,,9220
Vetrinci,,5066
Vetrishhe,,9809
Vetrovo,,5300
Vetrushka,,6952
Vekhtino,,4924
Vekhtovo,,9822
Veshhica,,3918
Viden,,6156
Vidin,,3700
Vidinci,,8671
Vidlica,,3478
Vidno,,5668
Vidrar,,2495
Vidrare,,2190
Vidrica,,2364
Vievo,,4767
Vizica,,8369
Vilare,,5035
Vinarovo,,6238|3773
Vinarsko,,8533
Vinevo,,6375
Vinica,,4284
Vinishhe,,3482
Vinograd,,5171
Vinogradec,,4487
Vinogradi,,2822
Virove,,3455
Virovsko,,3057
Vis,,6952
Viskjar,,2358
Visok,,7955
Visoka,,6744
 Visoka mogila,,2665
 Visoka poljana,,6678|9765
Visokite,,4921
Visokovci,,5098
Vitanovci,,2354
Vitina,,4975
Vikhren,,2800
Vichovo,,9563
Vishan,,2216
Vishegrad,,6646
Vishlene,,2895
Vishna,,8562
Vishnevo,,4939
Vishovgrad,,5239
Vladaja,,1741
Vladimir,,2411
Vladimirovo,,9379|6445|3440
Vladimirovci,,7440
Vladinja,,5563
Vladislav,,5179
Vladislavci,,2217
Vladichenci,,3748
 Vlado Trichkov,,2299
Vladovci,,5365
Vlajchovci,,5344
Vlasatili,,5367
Vlasatica,,3041
Vlakhi,,2841
Vlakhovo,,4724
Vlakhovci,,5349
Vodata,,4846
Vodach,,6709
Voden,,6412|8750|4289
Vodenichane,,8693
Vodenicharovo,,6080
Vodenicharsko,,6852
Vodenci,,6382
Vodica,,7851|9174
Vodna,,3831
 Vodni pad,,4826
Vodno,,7657|5166
Vodnjanci,,9495|3924
Vodolej,,5061
Vozhdovo,,6716
Vojvoda,,9958
Vojvodenec,,6381
Vojvodino,,9292
Vojvodinovo,,4135
Vojvodovo,,6353|3332
 Vojkova luka,,4967
Vojnegovci,,1223
Vojnezha,,5045
Vojnika,,8661
Vojnikovo,,9473
Vojnica,,3734
Vojnici,,3481
Vojnicite,,5350
Vojnishka,,5458
Vojnovo,,6698|7551
Vojnjagovo,,4347
Vojsil,,4000
Vokil,,7670
Volno,,2886
Volovarovo,,6231
Volovarci,,6633
Volovo,,7175
Volujak,,1746
 Voneshha voda,,5035
Vrabevo,,5660
Vrabcite,,5341
Vrabcha,,2470
Vrakupovica,,2834
Vranenci,,4649
 Vrani kon,,7940
Vranilovci,,5347
Vranino,,9663
Vraninci,,4906
Vransko,,6912
Vranja,,2830
 Vranja stena,,2445
Vranjak,,3248
Vrata,,4234
Vratarite,,9382
Vratica,,8109
Vratca,,2575
Vraca,,3000
Vrachanci,,9345
Vrachesh,,2151
Vrelo,,6832
Vresovo,,8560
Vruv,,3779
Vrudlovci,,2254
Vsemirci,,4622
Vukan,,2485
Vukovo,,2661
Vubel,,5953
Vuglarovo,,6313
Vuglevci,,5041
Vuglen,,8851|8851
Vuzel,,6710
Vulkan,,7688
 Vulkov dol,,5349
Vulkovich,,6850
Vulkovo,,2807
Vulkovci,,5365
Vulkosel,,2930
Vulnari,,9963
 Vulcha poljana,,8748
Vulchan,,4775
 Vulchan dol,,4947
Vulchanka,,6893
Vulchanovo,,8341
 Vulche pole,,6545
Vulchedrum,,3650
Vulchek,,3761
 Vulchi dol,,9280
 Vulchi izvor,,8723
Vulchin,,8443
Vulchitrun,,5890
Vulchovci,,5081|5086
Vurba,,4920|3939
Vurbak,,9781
Vurben,,6873|4145
Vurbenci,,6745
Vurbeshnica,,3147
Vurbina,,4921
Vurbino,,7674
Vurbica,,6445|5845|9870|3264|5128
Vurbnica,,2248
Vurbovka,,5233
Vurbovo,,6488|4837|3951
Vurbovchec,,3948
Vurbjane,,9943
 Vurgov dol,,4907
Vurzilkovci,,5081
Vurzulica,,5191
 Vurli dol,,6873|4989
Vurlinka,,5050
Vurlino,,4990
Vurtop,,3752
Vurkhari,,2786
Vurshec,,3540
Vurshilo,,8157
Gabare,,3265
Gabarevo,,6162
Gaber,,9419|2215
Gaberovo,,8212|6482
Gabra,,2112
Gabraka,,5097
Gabrene,,2898
Gabreshevci,,2557
Gabrina,,4921
Gabrica,,9779|4795
Gabrovdol,,2392
Gabrovica,,4467
Gabrovnica,,3453|2277
Gabrovo,,2747|5300|6691
Gabrovci,,5051
Gabur,,8158
Gaburnica,,9227
Gaburska,,5619
Gavrailovo,,8854
 Gavril Genovo,,3469
Gaganica,,3525
Gagovo,,7831
Gajdari,,5367
Gajkini,,5300
Gajtanevo,,2114
Gajtaninovo,,2924
Gajtanite,,5345
Gajtanci,,3753
Galata,,5731
Galatin,,3071
Galiche,,3250
Galishhe,,4934
Galovo,,3342
 Ganev dol,,5084
Ganchovec,,5397
Garvan,,5345|7589
Garvanovo,,6349
Gashhevci,,5041
Gega,,2882
Gela,,4838
Gelemenovo,,4444
 General Geshevo,,6856
 General Inzovo,,8670
 General Kantardzhievo,,9188
 General Kiselovo,,9180
 General Kolevo,,9373|9295
 General Marinovo,,3732
 General Todorov,,2873
 General Toshevo,,9500|8778
Generalovo,,6523
Genovci,,5300
Genchovci,,5300|5301
Genja,,5397
 Georgi Damjanovo,,3470
 Georgi Dobrevo,,6559
Gergevec,,8869
Gergini,,5346
German,,1786
Gecovo,,7219
Gesha,,5376
Geshanovo,,9393
Gigen,,5970
Giginci,,2393
Ginci,,2250
Girchevci,,2546
Gita,,6215
Glava,,3263
Glavan,,7543|6295
Glavanovci,,3468|2480
Glavanci,,9499
Glavatar,,4171
Glavatarci,,6738
Glavaci,,3045
Glavinica,,4409|7630
Glavnik,,6750
Glashataj,,7986
Gledaci,,5345
Gledachevo,,8954
Gledka,,6362
Gloginka,,7879
Glogino,,4948
Glogovec,,5080
Glogovica,,2463
Glogovo,,5724
Glodzhevo,,7320
Glozhene,,5740|5740
Glumovo,,6949
Glumche,,8429
Glutnicite,,5363
Glufishevo,,8866
Glukhar,,6647
Glushka,,5379
Glushnik,,8879
Gnezdare,,6990
Gnjazdovo,,6675
Govedare,,4453
Govedarci,,2020
Govezhda,,3474
Godech,,2240
Godeshevo,,2938
Godlevo,,2768
Goz,,2366
Gozdevica,,4791
Gozdejka,,5396
Golak,,2036
 Golem Calim,,2800
 Golema Rakovica,,2113
 Golema Fucha,,2667
Golemani,,5054
Golemanite,,5070
Golemanovo,,3839
Golemanci,,6358
 Golemi Bulgareni,,5370
 Golemi Stanchovci,,5365
 Golemo Babino,,3063
 Golemo Buchino,,2348
 Golemo Malovo,,2239
 Golemo selo,,2635
Golec,,5573
Golesh,,2254|7547
Goleshovo,,2818
Golica,,9114
Golobrad,,6793
Golobradovo,,6886
 Goljam Vurbovnik,,2690
 Goljam Devesil,,6932
 Goljam Dervent,,8757
 Goljam dol,,6245
 Goljam izvor,,6395|5741|7249
 Goljam manastir,,8777
 Goljam Porovec,,7444
 Goljam chardak,,4193
 Goljama bara,,6744
 Goljama Brestnica,,5789
 Goljama voda,,7452
 Goljama dolina,,6476
 Goljama Zheljazna,,5670
 Goljama Chinka,,6940
 Goljamo Asenovo,,6424
 Goljamo Belovo,,4473
 Goljamo Bukovo,,8329
 Goljamo Vranovo,,7065
 Goljamo gradishhe,,7848
 Goljamo Doljane,,7950
 Goljamo Drjanovo,,6146
 Goljamo Kamenjane,,6925
 Goljamo Krushevo,,8729
 Goljamo novo,,7789
 Goljamo Peshhene,,3058
 Goljamo Sokolovo,,7778
 Goljamo curkvishhe,,7924
 Goljamo Chochoveni,,8863
Goljanovci,,2231
Gomotarci,,3772
Goran,,5552
Goranovci,,2565|5035
Goreme,,2834
 Goren Enevec,,5050
 Goren chiflik,,9100
Gorica,,8225|9558|7854|9101
Gorichane,,9688
Gorichevo,,7337
 Gorna Arda,,4788
  Gorna Bela rechka,,3544
 Gorna Beshovica,,3155
 Gorna Birkova,,4657
 Gorna Breznica,,2842
 Gorna Brestnica,,2575
 Gorna Vasilica,,2046
 Gorna Verenica,,3484
 Gorna Vrabcha,,2439
 Gorna Glogovica,,2459
 Gorna Grashhica,,2535
 Gorna Dikanja,,2419
 Gorna Dubeva,,4648
 Gorna Zlatica,,7969
 Gorna Kabda,,7865
 Gorna Kovachica,,3463
 Gorna Koznica,,2687
 Gorna Kremena,,3154
 Gorna krepost,,6688
 Gorna Krushica,,2827
 Gorna kula,,6952
 Gorna Lipnica,,5227
 Gorna Luka,,3458
 Gorna Malina,,2131
 Gorna makhala,,4196|4345
 Gorna Melna,,2491
 Gorna Mitropolija,,5869
 Gorna Orjakhovica,,5100
 Gorna Ribnica,,2836
 Gorna Rosica,,5448
 Gorna Sekirna,,2399
 Gorna Studena,,5294
 Gorna Sushica,,2811
 Gorna Khadzhijska,,5089
 Gorna Khubavka,,7913
 Gorni Bogrov,,2138
 Gorni Vadin,,3343
 Gorni Vurpishha,,5380
 Gorni Glavanak,,6485
 Gorni Damjanovci,,5367
 Gorni Domljan,,4368
 Gorni Dragojcha,,5380
 Gorni Dubnik,,5880
 Gorni Koriten,,2557
 Gorni kraj,,5096
 Gorni Lom,,3690
 Gorni Marenci,,5360
 Gorni Okol,,2027
 Gorni Radkovci,,5360
 Gorni Romanci,,2371
 Gorni Tanchevci,,5098
 Gorni Cibur,,3632
 Gorni Conevci,,5360
 Gorni Juruci,,6954
Gornik,,5991
 Gorno Ablanovo,,7173
 Gorno Aleksandrovo,,8883
 Gorno Belevo,,6219
 Gorno Botevo,,6053
 Gorno Vojvodino,,6388
 Gorno vurshilo,,4456
 Gorno Draglishhe,,2797
 Gorno Drjanovo,,2963
 Gorno Izvorovo,,6181
 Gorno Kamarci,,2098
 Gorno Kirkovo,,6884
 Gorno Kobile,,2556
 Gorno Kozarevo,,7927
 Gorno Kraishhe,,2783
 Gorno Kupinovo,,6871
 Gorno Lukovo,,6985
 Gorno Novkovo,,7939
  Gorno novo selo,,6225
 Gorno Ozirovo,,3547
 Gorno Osenovo,,2756
 Gorno Pavlikene,,5549
 Gorno Peshhene,,3052
 Gorno pole,,6486
 Gorno Prakhovo,,6780
 Gorno Sakhrane,,6151
 Gorno selo,,2213
 Gorno Spanchevo,,2824
 Gorno trape,,5614
 Gorno Ujno,,2561
 Gorno Khursovo,,2727
 Gorno Cerovene,,3487
 Gorno Cherkovishhe,,6165
 Gorno Jabulkovo,,8343
 Gornova mogila,,5304
Gornoselci,,6574
Gornoslav,,4253
Gorovo,,8469|4776
Gorocvet,,7288
Gorochevci,,2496
Gorska,,5083
 Gorska poljana,,8721
  Gorski goren Trumbesh,,5132
 Gorski izvor,,6420|8664
 Gorski Senovec,,5167
Gorsko,,6990
 Gorsko Ablanovo,,7847
 Gorsko Djulevo,,6800
 Gorsko Kalugerovo,,5238
 Gorsko Kosovo,,5235
  Gorsko novo selo,,5075
 Gorsko Pisarevo,,5088
 Gorsko selo,,7947
 Gorsko Slivovo,,5557
Gortalovo,,5888
Gorun,,9689
Gorunaka,,2178
Gorchevo,,2882
Gorjani,,5367
Gospodinovo,,7561|9107
Gospodinci,,2914
Gostilica,,5390
Gostilja,,5864
Gostinja,,5543
Gostun,,2773
 Goce Delchev,,2900
Gradevo,,2755
Gradezhnica,,5732
Gradec,,2259|8990|3780
Gradeshnica,,3074
Gradina,,4290|5879|7239
Gradinarovo,,9243
Gradini,,9552
Gradinka,,7964
Gradishhe,,5435|5910|9803
Gradnica,,9498|9498
Gradsko,,8852
 Gradskovski kolibi,,3835
Gradut,,4749
Gramada,,3830
Gramade,,2679|4968
Gramazhdano,,2574
Gramatikovo,,8370
Gramatici,,5099
Granit,,6252
Granitec,,8333
Granitovo,,8740|3914
Granica,,2589
Granichak,,3934
Granichar,,8347|9669
 Graf Ignatievo,,4198
Grafitovo,,8938
Grashevo,,4618
Grashhica,,4845
Greevci,,7960
Grivica,,5841
Grivka,,6965
Grivjak,,6890
Grigorevo,,2108
Grozden,,8464
Grozd'ovo,,9248
Gromshin,,3444
Grokhotno,,4815
Gruevo,,6809
Grublevci,,5300
 Grulska padina,,2213
Gruncharovo,,7669
Gubesh,,2255
Gubislav,,2274
Gugutka,,6990
Gudevica,,4792
Gulijka,,6943
Gulija,,6926
Guljanci,,5960
Gumoshhnik,,5654
Gurbanovci,,2567
Gurgulica,,6830
Gurguljat,,2223
Gurkovo,,9644|2165|6199
Gurmazovo,,2226
Gusla,,9763
Guslar,,9479
Gucal,,2045
Gubene,,5473
Gulubec,,8220|6366
Gulubinci,,8642
Gulubnik,,2426
Gulubovo,,2789|4125|4125|4938
Gulubovci,,2223
Gumzovo,,3785
Gurbino,,2550
Gurbishhe,,6760
Gurdevci,,5087
Gurlo,,2381
Gurljano,,2568
Gurmen,,2960
Gurnati,,4991
Gurnja,,5370
Gurchinovo,,7844
Guskovo,,6651
G'ovren,,4811
Gjueshevo,,2570
Gjul'ovca,,8249
Gjurgevo,,2875
Gjurgich,,3932
Daveri,,5083
Davidkovo,,4944
Davidovo,,7563|7758
Dagonovo,,2779
Daevci,,5365
Dajnovci,,5084
Damjanica,,2813
Damjanovo,,5437
#NAME?,,6261
Daskalovo,,6707
 Dve mogili,,7150
 Dve topoli,,4949
Dvorishhe,,2541|6193
 Debel djal,,5341
Debelec,,5030
 Debeli lag,,2416
 Debeli rut,,5084
Debelt,,8314
Debelcovo,,5400
Debeljanovo,,4946
Debnevo,,5657
Debovo,,5958
Debochica,,2748
Debren,,2961
Debrene,,2803|9353
Debrushhica,,4499
Devene,,3065
Devenci,,5995
Devesilica,,6934
Devesilovo,,6933
Devetak,,8480
Devetaki,,5555
Devetacite,,5050
Devetinci,,8474
Devin,,4800
Devino,,7972
Devinci,,6833
Devnja,,9160
Dedec,,6861
Dedina,,5089
Dedino,,5089
Dedinci,,5089
Dedovo,,4106
Dekov,,5919
Delvino,,2728|6896
Delejna,,3795
 Delova makhala,,5084
Delchevo,,2917|7427
Deljan,,2652|2225
Deljanovci,,5292
Dennica,,8726|9772
Denchevci,,5377
 Dervishka mogila,,6539
Dermanci,,5780
Detelina,,8483|9111
Dechkovci,,5041
Dzhamuzovci,,2060
Dzhanka,,6908
Dzhebel,,6850
Dzhelepsko,,6824
Dzherman,,2648
Dzherovo,,6872
Dzhigurovo,,2812
Dzhinot,,8691
Dzhinchovci,,2483
Dzhuljunica,,7137|5170
Dzhumriite,,5343
Dzhurkovo,,4888
Dzhurovo,,2187
Dzhurovci,,5380
Dibich,,9811
 Diva Slatina,,3492
Diveci,,5345
Divlja,,2457
Divotino,,2350
Divchovoto,,5727
Dimanovo,,4998
Dimievci,,5363
Dimitrievo,,6259
Dimitrovgrad,,6400
Dimitrovci,,5050
Dimitrovche,,6518
Dimovo,,4757|3750
Dimovci,,6192|5035
Dimcha,,5234
Dimchevo,,8159
Dinevo,,6340
Dink,,4149
Dinkata,,4458
Dinkovica,,3783
Dinkovo,,3921
Dinja,,6269
Diralo,,4927
Disevica,,5886
Dismanica,,5444
Dichevo,,7625
Dichin,,5059
Dlugnevo,,6432
Dlugnja,,5387
 Dluzhka poljana,,7997
Dluzhko,,9789
#NAME?,,2582
Doborsko,,6947
 Dobra poljana,,8580
Dobravica,,2279
Dobraluk,,4259
 Dobreva cheresha,,4960
Dobrevo,,9399
Dobrevci,,5365|5762|5095
Dobrenite,,5380
 Dobri Vojnikovo,,9782
 Dobri dol,,2559|3667|3667|9128
 Dobri djal,,5149
 Dobri laki,,2838
Dobrin,,9402
Dobrina,,9216
Dobrinishhe,,2777
Dobrinovo,,8477|6670
Dobrinci,,6857
Dobrich,,9300|6437|8724
Dobrovnica,,4405
Dobrovo,,2662
Dobrogled,,9145
Dobrodan,,5658
Dobrolevo,,3253
Dobromir,,8552
Dobromirka,,5430
Dobromirci,,6861
Dobroplodno,,9281
Dobroselec,,8766
Dobroslavci,,1747
Dobrostan,,4256
Dobrotino,,2919
Dobrotica,,7660|7660
Dobrotich,,9282
Dobrudzhanka,,7548
Dobrusha,,3069
Dobursko,,2799
Doburchin,,2289
Doganovo,,2115
Dozhdevica,,2547
Dojnovci,,5035
Dojranci,,9961|6799
Dojrenci,,5550
Dokatichevo,,2734
 Doktor Josifovo,,3449
Dok'ovci,,2497
Dolen,,2968|4985
 Dolen Enevec,,5050
Dolene,,2887
Doleni,,2811
Dolec,,7682|7858
Dolie,,4921
Dolina,,9358|9947
Dolistovo,,2637
Dolishhe,,6663|9191
 Dolna banja,,2040
  Dolna Bela rechka,,8645
 Dolna Beshovica,,3143
 Dolna Vasilica,,2034
 Dolna Verenica,,3485
 Dolna Vrabcha,,2458
 Dolna Gradeshnica,,2843
 Dolna Grashhica,,2536
 Dolna Dikanja,,2420
 Dolna Dubeva,,4655
 Dolna Zlatica,,7968
 Dolna Kabda,,7867
 Dolna Koznica,,2658
 Dolna Kremena,,3153
 Dolna krepost,,6686
 Dolna Krushica,,2888
 Dolna kula,,6953
 Dolna Lipnica,,5199
 Dolna Malina,,2107
 Dolna Margatina,,5659
 Dolna makhala,,4351
 Dolna Melna,,2490
 Dolna Mitropolija,,5855
 Dolna Nevlja,,2214
 Dolna Orjakhovica,,5130
 Dolna Ribnica,,2892
 Dolna Riksa,,3452
 Dolna Sekirna,,2397
 Dolna Studena,,7123
 Dolna Khubavka,,7931
 Dolni Bogrov,,1755
 Dolni Boshnjak,,3782
 Dolni Vadin,,3344
 Dolni Vit,,5969
 Dolni Vurpishha,,5380
 Dolni Glavanak,,6483
 Dolni Damjanovci,,5036
 Dolni Dragojcha,,5380
 Dolni Dubnik,,5870
 Dolni Koriten,,2558
 Dolni Lom,,3958
 Dolni Lukovit,,5867
 Dolni Marenci,,5360
 Dolni Marjan,,5084
 Dolni Okol,,2028
 Dolni Pasarel,,1765
 Dolni Radkovci,,5360
 Dolni Rakovec,,2413
 Dolni Romanci,,2367
 Dolni Tanchevci,,5097
 Dolni Tomchevci,,5350
 Dolni Cibur,,3642
 Dolni chiflik,,9120
 Dolni Juruci,,6990
 Dolno Ablanovo,,7053
 Dolno Belevo,,6422
 Dolno Belotinci,,3437
 Dolno Botevo,,6393
 Dolno Vojvodino,,6389
 Dolno vurshilo,,4446
 Dolno Golemanci,,6358
 Dolno Draglishhe,,2798
 Dolno Drjanovo,,2944
 Dolno izvorovo,,6183
 Dolno Kamarci,,2097
 Dolno Kobile,,2556
 Dolno Kozarevo,,7926
 Dolno Kupinovo,,6870
 Dolno Linevo,,3605
 Dolno Lukovo,,6986
 Dolno Novkovo,,7938
  Dolno novo selo,,2212|6226
 Dolno Ozirovo,,3538
 Dolno Osenovo,,2757
 Dolno pole,,6382
 Dolno Prakhovo,,6779
 Dolno Rjakhovo,,7624
 Dolno Sakhrane,,6161
 Dolno selo,,2567
 Dolno Spanchevo,,2869
 Dolno Sudievo,,6497
 Dolno Ujno,,2560
 Dolno Cerovene,,3639
 Dolno Cherkovishhe,,6381
 Dolno Shivachevo,,5090
 Dolno Jabulkovo,,8342
Dolnoselci,,6973
Dolnoslav,,4254
Domishhe,,6887
Domljan,,4357
Dondukovo,,3659
Donino,,5342
Donkino,,5360
Donkovci,,5081
Donchevo,,9354
Donchovci,,5350
Dorkovo,,4641
Dositeevo,,6472
Dospat,,4831
Dospej,,2012
Docha,,5380
Drabishna,,6977
Dragana,,5793
Draganica,,3534
Draganovec,,7773
Draganovo,,8114|9349|6714|5137
Draganovci,,5332|5094
Draganoskovci,,5081
Draganci,,8489
Draganchetata,,5300
 Dragash vojvoda,,5952
Dragievci,,5481
Dragizhevo,,5145
Dragijci,,5094
Draginovo,,4642
Dragichevo,,2351
Dragnevci,,5360|5097
Dragovishhica,,2564|2259
Dragovo,,8437
Dragodan,,2625
Dragodanovo,,8888
Dragoevo,,9860
Dragoil,,2208
Dragojnovo,,4293
Dragojchinci,,2554
Dragoman,,2210
Dragomani,,5343
Dragomir,,4184
Dragomirovo,,2428|5285
Dragomuzh,,7419
Dragor,,4406
Dragostin,,2916
Dragotinci,,2218
Dragush,,2875
Dragushinovo,,2008
Drazhevo,,8634
Drazhinci,,3929
Draka,,8324
Drakata,,2829
Dralfa,,7870
Drama,,8651
Drangovo,,2859|6860|4164
Drandarite,,5363
Drachevo,,8319
Drashan,,3157
 Drashkova poljana,,5648
Dreatin,,2213
Dren,,2430
Drenkovo,,2739
Drenov,,5562
Drenovec,,3920
Drenovica,,2895
Drenovo,,2876|2257
Drenta,,5095
Drenci,,9788
Drinovo,,7834
Dripchevo,,6532
Dropla,,8563|9641
Drugan,,2410
Druzhba,,3730
Druzhevo,,2281
Druzhinci,,6885
Drumevo,,9815
Drumokhar,,2596
Drumche,,6820
Drumsha,,2257
Drundar,,9173
Drjanka,,4941
Drjankovec,,8524
 Drjanova glava,,6865
Drjanovec,,9392|7268|7122|4856
Drjanovo,,5370|6493|8652|4864
Drjanska,,5618
Drjanut,,5467
Duvanlii,,4174
Dukovci,,5094
Dulovo,,7650
Dumnici,,5345
Dunavec,,7623
Dunavci,,6145|3740|5041
Dunevo,,4723
Dunja,,4990
Dupnica,,2600
Durankulak,,9670
Durovci,,5089
Durcha,,5380
Dukhovec,,7435
Dushanci,,2083
Dushevo,,5455
 Dushevski kolibi,,5456
Dushinkovo,,6846
Dushinci,,2398
Dushka,,6714
Duben,,5787
Dubene,,4349
Dubnik,,8213
Dubnica,,2940
Dubova,,8996|4969
 Dubova makhala,,3674
Dubovan,,5973
Dubovec,,6547
Dubovik,,9551
Dubovica,,8449
Dubovo,,8736|6178
Dubrava,,2723|9638|5546
Dubravata,,5765
Dubravino,,9267
Dubravite,,4472
Dubravica,,6297
Dubravka,,3916
Duzhdino,,6642
Duzhdovnik,,6917
Duzhdovnica,,6747
 Dulbok dol,,5668
 Dulbok izvor,,4280
Dulboki,,6060
 Dulga luka,,2492
Dulgach,,7742
 Dulgi del,,3475
 Dulgi pripek,,5088
 Dulgo pole,,4195|3756
Dulgodelci,,3638
Dulgopol,,9250
Dungovo,,5637
Durvari,,5350
Durzhava,,6217
Durzhaven,,6188
Durzhanica,,3747
Durlevci,,5070
Durmanci,,3129
Duskarite,,5363
Duskot,,5223
Duskotna,,8561
Djulevo,,8330|4529
Djulino,,9108
Djulica,,6876
Djulja,,8571
Djadovo,,8918
Djadovsko,,6705
Djadovci,,6764
Djakovo,,2651
Djaluk,,5454
Djankovo,,7270
Evlogievo,,5965
Evrenozovo,,8363
Egrek,,6931
Egulnica,,2429
Edinakovci,,9792
Edrevo,,6173
Edrino,,6900
Ezdimirci,,2464
Ezerec,,2846|9687
Ezero,,8919
Ezerovo,,4288|9129
Ezeroto,,5309
Ezerche,,7274
 Ekzarkh Antimovo,,8490
 Ekzarkh Josif,,7171
Elena,,5070|5070
Elenino,,6047
Elenka,,4990
 Elenov dol,,2275
Elenovo,,2726|8943|7837
Elenska,,4731
Elencite,,5388
Eleshnica,,2782|2782
 Elin Pelin,,2100|2100
Elisejna,,3160
 Elov dol,,2159
Elovdol,,2434
Elovica,,3471|2489
Elkhovec,,4970
Elkhovo,,8700|6064|6147
Elshica,,4538
El'ovo,,4783
Emen,,5065
Emona,,8223
 Enev rut,,5469
Enevo,,9389|9919
Enina,,6142
Enica,,3261
Enchec,,6735
Enchovci,,5360
En'ovche,,6788
Erden,,3431
Eremija,,2585
 Erma reka,,4997
Erovete,,6865
Erul,,2486
Esen,,8459
Esenica,,9289
Etropole,,2180
 Efrejtor Bakalovo,,9422
Efrem,,6476
Zhabljano,,2442
Zhabokrut,,2545
Zheglarci,,9492
Zheglica,,3738
Zhedna,,2423
Zhelezari,,6994|7948
Zhelezarci,,5164
Zhelezino,,6995
Zhelezna,,3461
Zheleznik,,8488|6711
Zheleznica,,2732|1775
Zhelen,,2267
Zhelud,,9826
Zheludovo,,6855
 Zhelju vojvoda,,8860
Zheljava,,2137
Zheljazkovec,,7255
Zheljazno,,4136
Zheljazovo,,8106
Zhenda,,6693
Zheravino,,2567
Zheravica,,5621
Zheravna,,8988
Zhergovec,,6190
Zhernov,,5964
Zhivko,,5344
Zhivkovo,,2065|9794
 Zhidov dol,,5622
Zhizhevo,,2956
Zhilenci,,2573
Zhilino,,9929
Zhinzifovo,,6654
Zhitarnik,,6636
Zhiten,,9555|1763
Zhitnica,,9424|6708|4172|9278
Zhitosvjat,,8475
Zhitusha,,2432
Zhrebevo,,4827
Zhrebino,,8733
Zhrebichko,,4585
 Zhult brjag,,8849
 Zhult kamuk,,4298
Zhultesh,,5335
 Zhulti brjag,,6368
 Zhulti rid,,6846
Zhultika,,6842
Zhultopop,,6195
Zhultusha,,6789
Zabel,,2469
Zabernovo,,8367
Zaburdo,,4872
Zavala,,2374
Zavet,,8432|7330
Zavetno,,7881
Zavidovci,,2256
Zavoj,,8633
Zavoja,,6886
Zagore,,6095
Zagoriche,,9759
Zagorski,,6865
Zagorsko,,6817
Zagorci,,8321|9413|8939
Zagrazhden,,5974|4950
Zadruga,,7317
Zaevite,,4839
Zaimchevo,,8564
Zajchar,,8557
Zajchari,,8843
Zajchino,,6749
 Zajchino oreshe,,9918
Zamfir,,3644
Zamfirovo,,3530
Zanoga,,2875
Zanoge,,2283
Zaraevo,,7832
Zarica,,7689
Zarnik,,7552
Zasele,,2284
Zasmjano,,9875
Zafirovo,,7610
 Zakhari Stojanovo,,9671|7842
Zaja,,5398
Zvegor,,9791
Zvezda,,8572|7878
Zvezdel,,6820
Zvezdelina,,6653
Zvezden,,6658
Zvezdec,,8360
Zvezdica,,7945|9103
Zvenimir,,7689
Zverino,,3170
Zvinica,,6668
Zvunarka,,6920
Zvunarci,,7333
Zvunec,,9179
Zvunika,,6732
Zvunichevo,,4488
Zvunche,,6744
Zgalevo,,5897
Zgorigrad,,3042
Zgurovo,,2592
Zdravec,,6435|4241|7437|7769|9137
Zdravkovec,,5344
Zdravchec,,6861
Zebil,,7685
 Zelena morava,,7954
Zelendol,,2745
Zelenigrad,,2478
Zelenik,,5099
Zelenika,,5350
Zelenikovo,,4155|4155
 Zeleno durvo,,5337
Zemen,,2440
Zemenci,,9411
Zemlen,,6094
Zet'ovo,,8517|6520
Zidarovo,,8160
Zidarci,,2356
Zimevica,,2282
Zimen,,8428
Zimzelen,,6627
Zimnica,,9421|8690|6177
Zimovina,,6396
Zimornica,,6965
Zlatar,,9880
Zlatari,,8641
Zlatarica,,2783|5090
Zlatevci,,5345
 Zlati vojvoda,,8875
Zlatina,,9218
Zlatinica,,8746
Zlatirut,,6197
Zlatitrap,,4208
Zlatica,,2080
Zlatija,,9385|3630
 Zlatna livada,,6221
 Zlatna niva,,9944
 Zlatna Panega,,5760
Zlatovrukh,,4264
Zlatograd,,4980
Zlatoklas,,7694
Zlatolist,,2830|6915
Zlatopole,,6421
Zlatosel,,4162
Zlatoustovo,,6484
Zlatusha,,2225
Zlidol,,3161
Zlogosh,,2558
Zlokuchene,,4491|2009
Zmeevo,,9643
Zmeica,,4834
Zmejno,,7945
Zmejovo,,6059
Zmievo,,4777
Znamenosec,,6272
Zograf,,9553
Zojchene,,2882
Zornica,,8313|2821|6367|6650|4857|9156
Zurnevo,,9491
Ivajlo,,4407
Ivajlovgrad,,6970
 Ivan Vazovo,,4344
 Ivan Dimov,,5363
 Ivan Shishmanovo,,7342
Ivanivanovci,,5084
Ivanili,,5300
Ivankovci,,5340
Ivanovo,,2875|6465|7088|9865
Ivanovci,,2562|3739|5035
Ivanski,,9810
Ivanci,,6628
Ivancha,,7859|5194
Ivanshnica,,5623
Ivanjane,,1793
Iganovo,,4334
Iglika,,5343|8745|9797
Ignatievo,,9143
Ignatica,,3167
Ignatovo,,3631
Ignatovci,,5370|5098
Igralishhe,,2848
Idilevo,,5422
Izbeglii,,4269
Izbul,,9959
Izvor,,8153|4116|2415|2219|3742
 Izvor makhala,,3821
Izvorishhe,,8116
Izvornik,,9297
Izvorovo,,9538|6461|4235|6242|7950
Izvorsko,,9155
Izvorche,,5536
Izgrev,,8273|2711|8717|5924|9754|8847|4990|9176
Iztochnik,,5300
 Ilakov rut,,5082
Ilevci,,5045
Ilijno,,7948
Ilijsko,,6845
Ilinden,,2929|2072
Ilindenci,,2833
Ilinica,,6745
Ilijuvci,,5093
Ilija,,2581
 Ilija Bluskovo,,9813
Imrenchevo,,9877
 Indzhe vojvoda,,8149
Inovo,,3763
Irechek,,9666
Irechekovo,,8697
Irineci,,5367
Irnik,,7661
Iskra,,8481|5380|6781|4297|7580
Iskrec,,2290
Iskrica,,6293
Iskur,,5972|5868|9285
Isperikh,,7400
Isperikhovo,,4588
Is'ovci,,4764
Ikhtiman,,2050
Ichera,,8992
Jerusalimovo,,6551
 Joakim Gruevo,,4219
Jovkovo,,9531
Jovovci,,5360
Jovchevci,,5035
Joglav,,5553
Jonkovo,,7450
Jonchovo,,6724
Jordanovo,,7569
Kabile,,8629
Kableshkovo,,8210|9488|6703
Kavarna,,9650
Kavlak,,5163
Kavrakirovo,,2889
Kadievo,,4207
Kadrovica,,2593
Kazak,,6990
Kazanka,,6663
Kazanluk,,6100
Kazacite,,6850
Kazachevo,,5548
 Kazashka reka,,9141
Kazashko,,9025
Kazimir,,7574
Kazichene,,1732
Kajnardzha,,7550
Kalajdzhievo,,6927
Kalajdzhii,,5088
Kalejca,,5667
Kalekovec,,4147
Kalen,,3151
Kalenik,,5575|3729
Kalenovci,,2253
Kalimanci,,2832|9149
Kalina,,9544|3788
Kalinka,,6623
Kalino,,9795
Kalipetrovo,,7539
Kalitinovo,,6049
Kalishhe,,2431
Kalnishhe,,7960
Kalovo,,8368
Kalomen,,5388
Kalotina,,2212
Kalotinci,,2444
Kalofer,,4370
Kalojan,,9288
Kalojanovec,,6070
Kalojanovo,,4173|8881
Kalojanci,,6675
Kalugerene,,7631
Kalugerovo,,6477|4462|2163
Kalchevo,,8677
Kalchevska,,5616
Kalchovci,,5340
Kambelevci,,2215
Kamburovo,,7930
Kamen,,9425|8882|5160
 Kamen brjag,,9661
 Kamen vrukh,,8728
 Kamen djal,,9253
Kamena,,2878
Kamenar,,8215|7247|9102
Kamenari,,5083
Kamenarci,,6729
Kamenec,,8655|6800|5866
Kamenik,,2677
Kamenica,,2828|2072
 Kamenichka Skakavica,,2572
Kamenka,,6918
 Kamenna reka,,8789
 Kamenna Riksa,,3479
Kameno,,8120
 Kameno pole,,3150
Kamenovo,,7328|8928
Kamensko,,8455
Kamenci,,7565
Kamenjak,,8578|9783
Kamenjane,,6850
Kameshhica,,5476
 Kamilski dol,,6982
Kamchija,,8434
Kandilka,,6937
Kandovi,,4631
Kanic,,3793
Kantari,,5094
Kanjak,,6695
Kaolinovo,,9960
Kapatovo,,2872
 Kapitan Andreevo,,6530
 Kapitan Dimitrievo,,4589
 Kapitan Dimitrovo,,9408
 Kapitan Petko,,9770
  Kapitan Petko vojvoda,,6560
Kapitanovci,,3768
Kapishhe,,7988
 Kara Mikhal,,7453
Karabunar,,4484
Karavelovo,,8647|4350|9942
Karavel'ovo,,8553
Karageorgievo,,8543
Karadzhalovo,,4283
Karadzhovo,,4117
Karaivanca,,5386
Karaivanci,,5095
Karaisen,,5230
Karali,,5343
Karamanite,,9299
Karamanovo,,7130
Karamanci,,6372
Karamichevci,,5471
Karamfil,,6826
 Karan Vurbovka,,7163
Karandili,,5094
Karanovo,,8532|8934
Karanci,,5188
Karapelit,,9390
Karapolci,,2118
Karash,,3136
Karbinci,,3923
Karvuna,,9619
Kardam,,9530|7830
Karlievo,,2088
Karlovo,,4300
Karlovsko,,6949
Karlukovo,,5782
Karnobat,,8400
Kasapsko,,4921
Kasilag,,2424
Kasnakovo,,6439
Kaspichan,,9930|9931
Kastel,,5472
Katerica,,5894
Katrandzhii,,5395
Katranica,,4739
Katrishhe,,2537
Katunec,,5569
Katunica,,4120
Katunishhe,,8991
Katunci,,2830
Kacelovo,,7160
Kachulka,,6907
Kashenci,,5350
Kashina,,2820
Kajaloba,,6863
Kereka,,5388
Kerenite,,5366
Kermen,,8870
Kesarevo,,5161
Kesten,,4828
Kestenovo,,7937
Kievci,,5345
Kilifarevo,,5050
Kipilovo,,8998
Kipra,,9169
Kirevci,,5094
Kireevo,,3823
Kirilovo,,8741|6064
 Kirkova makhala,,5539
Kirkovo,,6884
Kirovo,,8344
Kirchevo,,5728
Kiselevo,,3675
Kiselica,,2556
Kiselichevo,,4765
Kiselkovci,,5360
Kisijcite,,5365
Kis'ovci,,5035
Kitanchevo,,7430
Kiten,,8284|9241
Kitino,,7993
Kitka,,8558|9127
Kitna,,6868
Kitnica,,6791
Kichevo,,9190
Kichenica,,7243
Kladenec,,6395|9816
Kladenci,,2895|9497
 Kladni djal,,5046
Kladnica,,2347
Kladorub,,3758
Klenovik,,2421
Klepalo,,2837
Klikach,,8427
Klimash,,8442
Kliment,,4348|9775
Klimentovo,,9150|5183
Klisura,,2738|4341|2026|1320
Klisurica,,3483
 Klisurski manastir,,8543
Klokotnica,,6310
 Klushka reka,,5035
Kljuch,,2899
Kmetovci,,5340
Kmetcheta,,5343
Knezha,,3230
Knizhovnik,,6390
 Knjazheva makhala,,3677
Knjazhevo,,8773
Knjazhevsko,,6077
Kobilino,,6993
Kobiljak,,3442
Kobiljane,,6734
Kovach,,6275
Kovachevec,,7852
Kovachevica,,2969
Kovachevo,,2824|4477|8950
Kovachevci,,2450|2023
Kovachite,,8874
Kovachica,,3643
Kovil,,6913
Koevci,,5365|5241
Kozhari,,4813
Kozhinci,,2487
Kozhljuvci,,5097
Kozhukharci,,6957
Kozanovo,,4248
 Kozar Belene,,5915
Kozare,,8493
Kozarevec,,6081|5148
Kozarevo,,8674
Kozarka,,4990
Kozarsko,,4584
 Kozi rog,,5338
Kozica,,6848|7833
Kozichino,,8249
Kozlevo,,6865
Kozlec,,6371
Kozlovec,,5290
Kozloduj,,3320
Kozlodujci,,9387
 Kozma prezviter,,7918
Koznica,,8255
 Kozja reka,,5080
Kozjak,,7673
Koilovci,,5842
Kojnare,,3270
Kojchovci,,5350
Kokaljane,,1791
Kokiche,,6676
Kokorkovo,,4725
Kokorci,,4971
Kokoshane,,6733
Kolari,,5084
Kolarovo,,2880|6460|7613|6371
Kolarci,,9481
Kolena,,6050
Kolec,,6376
Kolibite,,2838
Kolishovci,,5343
Kolobur,,7675
 Kolju Ganev,,5360
 Kolju Marinovo,,6237
Komarevo,,3516|5853|9269|3247
Komoshhica,,3648
Komunari,,9254
Komuniga,,6690
Komshhica,,2255
Konak,,7868
Konare,,9548|6189
Konarsko,,2792
Konarskoto,,5364
Kondovo,,6993
Kondolovo,,8275
Kondofrej,,2422
Konevec,,8734
Konevo,,6661|7442|9887
Konnici,,6951
Konop,,7995
Konska,,2379
Konstantin,,5080
Konstantinovec,,6267
Konstantinovo,,8129|6494|9180
Kontil,,6841
Konush,,6370|4268
Konche,,6828
Kon'ovec,,9748
Kon'ovo,,8920
Konjavo,,2540
Kopanica,,2409
Kopilovci,,2543|3467
Kopitnik,,6698
Koprec,,7775
Kopriva,,2567
Koprivec,,7120
Koprivlen,,2921
Koprivshhica,,2090
Koprinka,,6137
Kopcheliite,,5342
Koren,,6392
Koriite,,4921
Koritata,,4976
Koriten,,9403
Korijata,,5457
Korkina,,2688
Kormjansko,,5433
Kornica,,2970
Korten,,8930
Kos,,6820
Kosara,,7612
Kosarka,,5394
Kosacha,,2448
Kosevci,,5095
Kosilka,,5380
Kosovec,,8248
Kosovo,,2557|4887|9974|3794
 Kosta Perchevo,,3833
Kostadinite,,5300
Kostadinkino,,2060
Kostandenec,,7273
Kostandovo,,4644
Kostel,,5099
Kostelevo,,3047
Kosten,,8441
 Kostena reka,,9806
Kostenec,,2030|2030
Kostenkovci,,5343
Kostenci,,3518
Kosti,,8283
Kostievo,,4205
Kostilkovo,,6993
Kostinbrod,,2230
Kostino,,6743
Kostichovci,,3755
Kostur,,6533
Kosturino,,6884
Kosturinci,,2489
Kotel,,8970
Kotenovci,,3522
Kotlari,,6957
Kotlenci,,9374
Kotuci,,5097
Kochan,,2955
Kochani,,4999
Kochevo,,4119
Kocherinovo,,2640
Kochmar,,9477
Kochovo,,9862
Koshava,,3771
Kosharevo,,2390
Kosharite,,2453
Kosharica,,8224
Kosharna,,7062
Koshnica,,4778
Koshnichari,,7871
Koshov,,7087
Kravino,,6076
Kravoder,,3048
Kragulevo,,9418
Kraevo,,2169
Kraishhe,,2781|9535
Krajgorci,,9875
Krajna,,4900|4900
 Krajni dol,,2649
Krajnici,,2633
 Krajno selo,,6739
Krajnovo,,8752
Krajpole,,7997
Krakra,,9287
 Kralev dol,,2349
Kralevo,,6362|7770
 Krali Marko,,4452
Kramolin,,5429
Kran,,6898
Kranevo,,9649
Kranovo,,7549
Krapec,,9674|9674
Krapchene,,3434
Krasava,,2370
Krasen,,9534|7075
 Krasen dol,,9935
Krasimir,,9258
Krasino,,6962
 Krasno gradishhe,,5242
Krasnovo,,4178
Krasnoselci,,7925
Krachimir,,3964
Kremen,,2771|6884
Kremena,,9639
Kremene,,4755
Kremenec,,6822
Kremenik,,2653
Krepost,,6410
Krepcha,,7845
Kresljuvci,,5367
Kresna,,2845
Kreta,,5961|3127
Kribul,,2951
 Kriva bara,,3669|3328
 Kriva krusha,,8936
 Kriva reka,,9938
Krivina,,7132|1788
Krivini,,9123
Krivica,,7257
Krivnja,,7269|9217
 Krivo pole,,6387
Krivodol,,3060
Krivonos,,2386
Krilatica,,6884
Kriljuvci,,5097
Krin,,6671
Krislovo,,4148
Krichim,,4220
Kromidovo,,2871
Krojach,,7278
Krojachevo,,6766
Krum,,6438
Krumovgrad,,6900
Krumovo,,8649|2627|4112|9149
 Krumovo gradishhe,,8487
Krumchevci,,5080
Krupen,,9667
Krupnik,,2740
Krusha,,2213|9121
Krushare,,8877
Krushari,,9410
 Krushev dol,,4919
Krushevec,,8148
Krushevo,,2945|5427|4291
Krushevska,,6744
Krusheto,,5134
Krushka,,6743
Krushovene,,5860
Krushovica,,5881|2060|3349
Krushovo,,8482|4875
Krusholak,,7962
Krushuna,,5561
Kruvenik,,5460
Krun,,6140
Krundzhilica,,2875
Kruncha,,5370
Krustava,,4647
Krustatica,,4741
Krustevich,,4177
Krustenjacite,,5350
Krustec,,5364
Krustilci,,2805
Krustina,,8121
Krushno,,7874
Kubadin,,8335
Kubrat,,7300
Kubratovo,,1757
Kudelin,,3798
Kuz'ovo,,2788
Kuklen,,4101
Kuklja,,5370
Kukorevo,,8673
Kukuvica,,4840
Kukurakhcevo,,2882
Kukurjak,,6898
Kula,,3800
Kulata,,2868
 Kulina voda,,5937
Kumanite,,5380
Kumanovo,,9192
Kundevo,,4990
Kunino,,3140
Kupen,,5463|4921
Kupcite,,6839
Kurnovo,,3138
Kurtovo,,4369
 Kurtovo Konare,,4223
Kutela,,4752
Kutlovica,,7558
Kutovo,,3767
Kutugerci,,2567
Kucarovci,,5042
Kucina,,5189
Kucovo,,6697
Kushla,,4986
Kuklica,,6927
Kukrina,,5544
Kulnovo,,9821
Kunchevo,,6164
Kupinec,,7997
Kupinovo,,9528|5043
Kupinovci,,7434
Kurdzhali,,6600
Kurlanovo,,2820
Kurnalovo,,2860
Kurnare,,4337
Kurpachevo,,5558
Kurpelevo,,2825
Kurtipunja,,5380
Kurtozhabene,,5883
Kurchovsko,,6873
Kurshalevo,,2563
Kusak,,4832
Kutina,,1776
Kushin,,5885
Kushle,,2492
K'olmen,,9888
K'osevo,,6728
K'osevci,,7951
Kjulevcha,,9758
Kjustendil,,2500
Lagerite,,5035
Lagoshevci,,3743
Ladarevo,,2811
Lazarovo,,3262
Lazarci,,5097
Lakarevo,,5656
Lakatnik,,2273|2273
Lale,,6823
Lalkovo,,8749
Lambukh,,6983
Laskar,,5876
Laskarevo,,2811
Latinka,,6767
Lebed,,6859
Lebnica,,2866
 Leva reka,,2494
Levishhe,,2260
Levka,,6540
Levochevo,,4743
Levski,,4535|5900|9171
Levunovo,,2817
Levci,,6750
Ledenik,,5049
Lelinci,,2588
Lenishhe,,6783
Lenkovo,,5967
Lenovo,,4261
Lensko,,6995
Lepica,,3268
Lesidren,,5730
Lesicharka,,5343
Lesiche,,5085
Lesicheri,,5222
Lesichovo,,4463
Leska,,2567|4928
Leskovdol,,2268
Leskovec,,3523|2342|3341
Lesnovo,,2119
Lesovo,,8754
Lesura,,3073
Letnica,,5570|2207
Letovnik,,6810
Lekhovo,,2816
Lekhchevo,,3445
Leshko,,2749
 Leshko presoi,,5624
Leshnikovo,,6466
Leshnikovci,,2481
Leshnica,,2808|5578
Leshhak,,4929
Leshharka,,6967
Leshhen,,2962
Lejarovo,,8556
Livada,,8107
Livade,,4921
Lik,,3168
Lilekovo,,4858
Lilkovo,,4105
Liljak,,7760
Liljanovo,,2809
Liljach,,2597
Liljache,,3051
Limec,,6936
Lipen,,3489
Lipec,,4784
Lipinci,,2212
Lipnik,,7242
Lipnica,,2158|3352
Lisec,,2547|5568|2023
 Lisi vrukh,,9952
Lisicite,,6645
Lisija,,2743
Lisovo,,6541
Listec,,8573|7687
Litakovo,,2164
Lobosh,,2433
Lovec,,9869|6070|7741
Lovech,,5500
Lovnidol,,5423
Lovsko,,7291
Lovci,,4908
Lovchanci,,9430
Logodazh,,2737
Loza,,5347
Lozarevo,,8440
Lozevo,,9746
Lozen,,6552|4489|1151|6062|5172
Lozengradci,,6894
Lozenec,,8277|9414|8688
Lozenica,,2821
Lozica,,8466|5954
Loznica,,9541|7290
Lozno,,2507
Lokvata,,2656
Lokorsko,,1767
Lom,,3600
 Lom Cherkovna,,7135
Lomec,,5669
Lomnica,,9397|2562|2465
Lomci,,7838
Lopushna,,9237
Lopushnja,,2252
Lopjan,,2180
Ludogorci,,7445
Lukovit,,5770
Lukovo,,2296
Lulichka,,6921
Luvino,,7439
Luvovo,,6638
Luga,,2182
Luzhnica,,2971
Luka,,8216|4726
Lukavica,,4865
Luki,,2928|4860
Ljuben,,4188|7663
 Ljuben Karavelovo,,9184
Ljubenec,,8949
 Ljubenova makhala,,8947
Ljubenovo,,6342|5955|6267
Ljubenci,,5176
Ljubimec,,6550
Ljubino,,6796
Ljubichevo,,7980
Ljublen,,7843
Ljubnica,,2061
Ljubovishhe,,2820
Ljubovka,,2811
Ljubcha,,4833
Ljulin,,8685|2352
Ljulka,,4785
Ljuljak,,6051
Ljuljakovo,,8570|9525|6684
Ljutadzhik,,3038
Ljutibrod,,3159
Ljutidol,,3165
Ljutovo,,2791
 Ljava reka,,6198
Ljalinci,,2474
Ljaskovec,,6397|5140
Ljaskovo,,8518|9428|6667|4238|6045|6045
Ljatno,,9948
Ljakhovo,,9617|4486
Magardzhica,,4841
Madan,,3448|4900
Madara,,9750
Madzhare,,2022
Madzhari,,6383
Madzharovo,,6480
Madzherito,,6096
Mazarachevo,,2549
 Major Uzunovo,,3777
Majsko,,5085
Majstorovo,,6675
Mak,,6784
Makariopolsko,,7750
Makedonci,,6640
Makovo,,7873
Makocevo,,2124
Makresh,,3760
 Mala Rakovica,,2225
 Mala Fucha,,2669
 Mala curkva,,2021
Malevo,,6392|4891
Malenovo,,8689
 Mali Vurbovnik,,2691
 Mali Drenovec,,3749
 Mali izvor,,9474
Malina,,8327|9559
Malini,,5300
Malinovo,,5443|5582
 Malka Arda,,4742
 Malka Vereja,,6099
 Malka Zheljazna,,5729
 Malka poljana,,8519
 Malka Smolnica,,9386
 Malka Cherkovna,,7997
 Malka Chinka,,6941
 Malki Bulgareni,,5370
 Malki Voden,,6543
 Malki Vurshec,,5432
 Malki Iskur,,2184
 Malki Stanchovci,,5365
 Malki Calim,,2800
 Malki chiflik,,5028
 Malko Asenovo,,6425
 Malko Brjagovo,,6476
 Malko Vranovo,,7067
 Malko gradishhe,,6558|6560
 Malko Drjanovo,,6227
 Malko Jonkovo,,7450
 Malko Kadievo,,6052
 Malko Kamenjane,,6927
 Malko Kirilovo,,8756
 Malko Krushevo,,4951
 Malko Popovo,,6482
 Malko selo,,8981
 Malko Trunovo,,6228
 Malko Turnovo,,8350
 Malko Chochoveni,,8857
 Malko Sharkovo,,8751
Malkoch,,6898
 Malo Buchino,,1764
 Malo Konare,,4450
 Malo Krushevo,,4183
 Malo Malovo,,2238
 Malo Peshhene,,3078
 Malo selo,,2636
Malogradec,,7978
Malomir,,8650|9871
Malomirovo,,8737
Malorad,,3250
Malusha,,5304
Malchika,,5917
Malchovci,,5050|5367|5050
 Maluk Devesil,,6935
 Maluk dol,,6250
 Maluk izvor,,6394|5734
 Maluk manastir,,8742
 Maluk Porovec,,7429
 Maluk Preslavec,,7620
 Maluk chardak,,4194
Mamarchevo,,8743
 Manaselska reka,,2193
Manastir,,6390|4873|9224
Manastirica,,7856
Manastirishhe,,2256|3354
Manastirsko,,7284
Manastirci,,7292
Mandra,,6357
Mandrica,,6985
Manevci,,5363
Manole,,4137
Manolich,,8453
Manolovo,,6152
 Manolsko Konare,,4138
Manoja,,5393
Manushevci,,7967
Manchevo,,6800
Marafelci,,5070
Marash,,9745
Margovci,,5035
Marikostinovo,,2870
Marinka,,8154
 Marino pole,,2867|4365
Marinovci,,5445|5097
Marica,,2044
Markovo,,4108|9973|6247
 Markovo ravnishhe,,3133
Marten,,7958
Martino,,6745
Martinovo,,3459
Marulevo,,2725
Marucekovci,,5360
Marchevo,,2949
Marchino,,7869
Marjan,,5084
Maslarevo,,5198
Maslinovo,,6388
Mateshovci,,5350
Matochina,,6535
Makhalata,,2849
Makhalnici,,5081
Maca,,8963
Medven,,8987
Medevci,,6865
 Meden buk,,6598
 Meden kladenec,,8639
 Medeni poljani,,4637
Medeshevci,,3765
Medkovec,,3670
Mednikarovo,,6294
Medovene,,7319
Medovec,,9238
Medovina,,7863
Medovnica,,3947
Medovo,,8214|9388|6235
Mezhda,,8644
Mezhden,,7672
Mezhdeni,,5343
Mezdra,,3100
Mezdreja,,3515
Mezek,,6521
Melnik,,2820
Melnica,,8755
Meljane,,3472
Mengishevo,,9885
Mendovo,,2893
Menenk'ovo,,4482
Merdanja,,5147
Merichleri,,8430
Mesta,,2772
Metlika,,6938
Metlichina,,6873|9291
Metlichka,,6890
Metodievo,,9867|9867
Metokhija,,2556
Mechka,,5843|7091
Mechkarevo,,8868
Mechkovica,,5300
Mechkovci,,2060
Mechkul,,2754
Mechovo,,7997
Meshhica,,2353
Mizija,,3330
Mijkovci,,5098
Mikre,,5572
Mikrevo,,2826
Miladinovo,,6660
Miladinovci,,9431|8657|7875
Milanovo,,2280|9859
Mile,,4921
Milevo,,4131
Milevci,,5350
Milencha,,5627
Milino,,7984
Milkovica,,5968
Milkovo,,4779
Milkovci,,5345
Milk'ovci,,2475
Miloslavci,,2478
 Milchina luka,,3766
Mindja,,5044
Minevci,,5083
 Mineralni bani,,6343
Minzukhar,,6665
Mirkovo,,2095
Mirovec,,7751
Mirovo,,2059|6255|5158
Mirovci,,9921
Mirovjane,,1789
Miroljubovo,,8521
Mirchovci,,5094
Mirjanci,,4443
Mitino,,2857
Mitovska,,4909
Mitrovci,,3464
Mikhajlovo,,6080|3355
Mikhajlovci,,5347
Mikhalich,,6537|9284
Mikhalkovo,,4820
Mikhalci,,5248
Mikhilci,,4361
Mikhnevo,,2862
Mikhovci,,5369
Michkovci,,5343
Mishevsko,,6840
 Mishemorkov khan,,5035
 Mlada gvardija,,9228
Mladezhko,,8364
Mladen,,5428
Mladinovo,,6531
Mladovo,,8927
Mlamolovo,,2654
Mlekarevo,,8960
Mlechevo,,5441
Mlechino,,6781
Mogila,,8627|9932|6052
Mogilec,,7943
Mogilino,,7165
Mogilite,,5350
Mogilica,,4761
Mogilishhe,,9665
Mogilovo,,6239
Mogiljane,,6867
Modren,,6840
Mokren,,8994
Mokresh,,3647|9861
Mokrishhe,,4408
 Momin prokhod,,2035
 Momin sbor,,5067
 Momina klisura,,4468
 Momina sulza,,6838
 Momina curkva,,8320
Momino,,6387|7706
 Momino selo,,4143
Mominsko,,4118
Momkovo,,6558
Momchilgrad,,6800
Momchilovo,,9221
Momchilovci,,4750
Montana,,3400
Morava,,5291
Moravica,,7974|3145
Moravka,,7992
Morovecite,,5300
Mortagonovo,,7248
Morjanci,,6959
Moskovec,,4333
Most,,6670
Mostich,,9878
Mostovo,,4257
Mochure,,4978
Moshhanec,,2729
Mraketinci,,2477
Mramor,,8783|2487|1761
Mramoren,,3054
Mrakhori,,5345
Mrachenik,,4362
Mrezhichko,,8538|6845
Mruzeci,,5368
Mugla,,4847
Muzga,,5475
Muldava,,4249
Murga,,6725
Murgash,,2247
Murgovo,,6679
Mureno,,2437
Mursalevo,,2623
Murtinci,,2382
Musachevo,,2139|6284
Musevo,,6774
Muselievo,,5963
Musina,,5247
Musomishha,,2920
Mustrak,,6527
Mukhovo,,2061
Mucja,,5370
Muglen,,8523
Muglene,,6865
Muglizh,,6180
Muglishha,,4910
Mudrevo,,7323
Mudrec,,6674|6292
Mudrino,,8444
Murvodol,,2655
Murzjan,,4996
Murtvinata,,5094
Murchaevo,,1696
Murchevo,,3443
Mutenica,,4176
Navusen,,6479
Nadarevo,,7740
Nadarci,,4758
Nadezhden,,6459
 Najden Gerovo,,4185
Najdenovo,,6224
Nane,,6800
Nanovica,,6830
 Narechenski bani,,4880
Nasalevci,,2478
Naum,,9755
Nauchene,,8929
Nacovci,,5055
Nachevo,,2213
Nebeska,,6693
Nevestino,,8431|2595|6722
Nevsha,,9229
Negovan,,1758
Negovanovci,,3774
Negovanci,,2417
Negushevo,,2123
Nedan,,5231
Nedelevo,,4187
Nedelino,,4990
Nedelishhe,,2213
 Nedelkova Grashhica,,2594
Nedelkovo,,2477
Nedoklan,,7251
Nedjalkovci,,5350|5070
Nedjalsko,,8684
Nejkovo,,9692|8993
Nejk'ovec,,2061
Nejchovci,,5380
Nenkovo,,6797
Nenovo,,9234
Nenovci,,5367
 Neofit Bozvelievo,,6831
 Neofit Rilski,,9223
Nepraznenci,,2396
Nesebur,,8230
Nesla,,2214
Nefela,,3039
Neshevci,,5097
Nivjanin,,3241
Nikachkovci,,5369
 Nikola Kozlevo,,9955
Nikolaevka,,9172
Nikolaevo,,5351|2406|5874|8873|6190|5168
Nikolichevci,,2599
Nikolovo,,6364|3429|7057
Nikolovci,,5070
Nikolchovci,,5345|5098
Nikopol,,5940
Nikudin,,2839
Nikjup,,5068
Nisovo,,7079
Nichovci,,5097
  Nova bjala reka,,9883
 Nova Vurbovka,,5169
 Nova Zagora,,8900
 Nova Kamena,,9493
 Nova livada,,6995
 Nova Lovcha,,2925
 Nova makhala,,4581|6191
 Nova Nadezhda,,6330
 Nova Popina,,7582
 Nova Cherna,,7645
 Nova Shipka,,9249
Novakovo,,4262|9187
Novakovci,,5479
Novachevo,,8853
Novachene,,5950|2167
Novgrad,,7133
 Novi izvor,,4265
 Novi Iskur,,1780
 Novi pazar,,6710|9900
 Novi khan,,2110
 Novi chiflik,,2531
 Novo Botevo,,9358
 Novo burdo,,2212
 Novo gradishhe,,5175
 Novo Delchevo,,2814
 Novo Zhelezare,,4167
 Novo Konomladi,,2874
 Novo Leski,,2923
 Novo Orjakhovo,,9113
 Novo Panicharevo,,8152
 Novo selo,,2847|2534|4221|7052|2016|6062|3784|5069
 Novo Khodzhovo,,2831
 Novo Jankovo,,9825
Novogorci,,5088
Novosel,,9807
Novoselec,,8958
Novoselishhe,,6697
Novoselci,,3729
Novoseljane,,2689
Noevci,,2394
Nozharevo,,7615
Nozharovo,,7441
Nozherite,,5360
Noseite,,5360
Nochevo,,6726
Njushkovci,,5097
Obedinenie,,5195
Obel,,2738
Obzor,,8250
Obidim,,2776
Obitel,,7920
Obichnik,,6800
Obnova,,5922
Oborishhe,,4522|9182
Obretenik,,7170
Obrochishhe,,9630
Obruchishhe,,6290
Oven,,7671
Ovoshharci,,5340
Ovoshhna,,5088
Ovoshhnik,,6138
 Ovcha mogila,,5295
Ovchaga,,9233
Ovchari,,6922
Ovcharovo,,9395|6468|9805|7747
Ovcharci,,2647|6260
Ovchevo,,6846
Ovchepolci,,4448
 Ovchi kladenec,,8660
Ogled,,4972
Ognen,,8467
Ognjanovo,,2947|9423|4417|2117
Ogoja,,2297
Ogradna,,4937
Ograzhden,,9529
Odorovci,,3679
Odranica,,2498
Odrinci,,9357|6584
Odurne,,5893
Odurci,,9362
Ozurnovci,,2373
Okoliite,,5350
Okop,,8669
Okorsh,,7680
Oman,,8727
Omarchevo,,9949|8921
Omurtag,,7900
Onogur,,9486
Opaka,,7840
Opan,,6078
Opanec,,9347|5851
Opicvet,,2235
Opletnja,,2276
Opulchenec,,6254
Opulchensko,,6641
Orach,,7977
Orekhovica,,5859
Orekhovo,,4877
Oresh,,5280
Oreshak,,5630|9193
Oreshari,,6929
Oreshe,,2943
Oreshene,,5763|7684
Oreshec,,6475|4255|3945
Oreshino,,6979
Oreshica,,4727
Oreshnik,,8767
Oreshnica,,6655
Orizare,,8227
Orizari,,4209|8893
Orizovo,,6253
Orlinci,,8325
Orlica,,6892
 Orlov dol,,8787
 Orlova mogila,,9359
Orlovec,,5187
Orlovo,,6354|8985
Orlovci,,5340
Orljak,,9490
Orljane,,5577
Orsoja,,3665
Orcevo,,2785
Orjakhovec,,4942
Orjakhovica,,6061
Orjakhovo,,6548|3300
Oselna,,2186|3171
Osen,,7634|7746|3059
Osenarite,,5037
Osenec,,7267
Osenovec,,9753
Osenovlag,,2291
Osenovo,,2774|9194
Osetenovo,,6153
Osikovica,,2188
Osikovo,,2965|4819|7862
 Osikovska Lakavica,,2189
Osina,,2953
Oslarka,,6216
 Oslen Krivodol,,3169
Osmar,,9879
Osoica,,2121
 Ostra mogila,,8983|6063
Ostrec,,7743
 Ostri pazlak,,4732
Ostrica,,7161|4859
Ostrov,,3340
Ostrovec,,6881
Ostrovica,,6644
Ostrovo,,7260
Ostrovche,,7238
Ostrokapci,,3757
 Ostur kamuk,,6457
 Otec Kirilovo,,4163
 Otec Paisievo,,4354
Okhljuvec,,6624
Okhoden,,3079
Okhrid,,3438
Ochindol,,3162
Ochusha,,2049
Oshane,,3937
Oshanite,,5350
Oshhava,,2847
Pavel,,5197
 Pavel banja,,6155
Pavelsko,,4889
Pavlevci,,5369
Pavlikeni,,5200
Pavolche,,3041
Padala,,2632
Padalo,,6960
Padesh,,2747
Padina,,6771|7617|9272
Padine,,2438
Pazardzhik,,4400
Pazarci,,6829
Paisievo,,7681
Paisij,,5173
Pajdushko,,7767
Palamarca,,7850
Palat,,2829
Palatovo,,2681
Palauzovo,,8698
Palilula,,3439
Palici,,5083
Pamidovo,,4459
Pamukchii,,9934|6089
Panagjurishhe,,4500
 Panagjurski kolonii,,4520
 Panajot Volovo,,9802
 Panajot Khitovo,,7929
Panaretovci,,8867
Panicovo,,8254
Panicharevo,,3685
Panicherevo,,6172
Panicheri,,4179
Panichino,,7928
Panichishhe,,2650
Panichkovo,,6723
Panovci,,2060
Pancharevo,,1137
Panchevo,,6657
Paprat,,6851
Papratliva,,5094
Paramun,,2474
Paril,,2926
Partizani,,9245
Partizanin,,6218
Parchovci,,5344
Paskalevec,,5224
Paskalevo,,9370
Paspal,,6776
Pastra,,2631
Pastukh,,2659
Patalenica,,4497
Patica,,6710
Patresh,,5225
Patreshko,,5631
 Patriarkh Evtimovo,,4267
Paunovo,,2060
Pashinci,,6969
Pashkul,,6949
Pashovi,,4632
Pashovo,,6529
Pevec,,7771
Pevcite,,4335
Pejkovci,,5095
Pejna,,5370
Pejovci,,5345
Pejchinovo,,7127
Pelatikovo,,2582
Pelin,,6948
Pelishat,,5895
Penkovci,,5474
Penk'ovci,,2499
Pen'ovo,,6741
Pepelina,,7158
Pepelishhe,,6643
Perilovec,,3841
Pernik,,2300
Perperek,,6673
Perunika,,6949
Perushhica,,4225
Pesnopoj,,6798|4355
Pesochnica,,3519
 Pet kladenci,,7119
 Pet mogili,,9940|8953
Petelovo,,6666
 Petko Karavelovo,,5184
 Petko Slavejkov,,6434
Petkovo,,2111|4740
Petkovci,,5370|5084
Petleshkovo,,9521
Petlino,,6634
Petokladenci,,5928
Petrevene,,5784
Petrelik,,2936
Petrino,,7956
Petrich,,2850|2085
 Petrov dol,,4911|9225
Petrovo,,2815|6091
Petrovci,,5347
Peturnica,,5878
Peturch,,2234
Pecovci,,5345
Pechenica,,7428
Pechinska,,4912
Peshakovo,,3733
Peshhera,,4550|2443|4754
Peshherna,,5780
Peshhersko,,8525
Piperevo,,2618
Piperica,,2831
 Piperkov chiflik,,2508
Piperkovo,,7129
Piramidata,,5035
Pirgovo,,7090
Pirdop,,2070
Pirin,,2823
Pirinec,,7976
Pirne,,8528
Pisanec,,7081
Pisanica,,4744
Pisarevo,,9927|5127
Pisarovo,,9527|5871
Pismenovo,,8289
Pitovo,,8942
Pishurka,,3662
Pishhane,,2218
Pishhigovo,,4451
Pijavec,,6813
Plazishhe,,6850
Plakovo,,5042
Plakuder,,3781
Plana,,1774
Planinec,,6999
Planinica,,8565|2340
Planinovo,,8768
Planinsko,,4940
Planinci,,5367|4921
Plachidol,,9365
Plachka,,5370
Plachkovci,,5360
Pleven,,5800
Plevun,,6593
Plenimir,,9522
Pletena,,2954
Pleshivec,,3931
Pleshinci,,6800
Pliska,,9920
Plovdiv,,4000
Plovdivci,,4979
Plovka,,6890
Plodovitovo,,6257
 Ploska mogila,,6054
Ploski,,2810
Pluzishhe,,2092
Plustina,,7934
Pobeda,,9372|8679|5873
 Pobit kamuk,,2554|4638|7262
Pobuk,,5365
Povaliruzh,,2218
Povet,,6630
Podajva,,7431
Podvis,,8450|4733
Podvrukh,,6850
Podgore,,3754
Podgorec,,8535
Podgorie,,2049
Podgorica,,7768
Podgumer,,1759
Podem,,5852
Podkova,,6880
Podkrepa,,6312
Podles,,7632
Podrumche,,6945
Podslon,,9391|6058
Pozharevo,,2229|7622
Pozhernik,,5041
Poibrene,,4524
Pokrajna,,3764
Pokrovan,,6975
Pokrovnik,,2708
Polena,,2758
Polenica,,2804
Poletinci,,2561
Poletkovci,,3818
Poleto,,2751
Polikraishhe,,5138
 Polkovnik Djakovo,,9401
 Polkovnik Zheljazovo,,6909
 Polkovnik Ivanovo,,9432
 Polkovnik Lambrinovo,,7579
 Polkovnik Minkovo,,9432
 Polkovnik Savovo,,9471
 Polkovnik Sveshharovo,,9378
 Polkovnik Serafimovo,,4794
 Polkovnik Taslakovo,,7677
 Polkovnik Cholakovo,,7553
 Polska Skakavica,,2551
 Polski Gradec,,6276
 Polski izvor,,8123
 Polski Senovec,,5193
 Polski Trumbesh,,5180
 Polsko Kosovo,,7131
 Polsko Pudarevo,,8937
Poljana,,8654|7584|4977
Poljanec,,6847
Poljanovo,,8544|6464
Poljanci,,2068
Poljacite,,9239
Pomezhdin,,3476
Pomen,,7164
Pomorie,,8200
Pomoshhica,,7839
Pomoshhnik,,6297
Ponor,,2257
Popari,,5343
Popgergevci,,5369
Popgrigorovo,,9377
Popgruevo,,9478
Popina,,7590
Popinci,,4528
Popica,,3244
Popkralevo,,7545
Popovec,,6398
Popovica,,4127
Popovich,,9102
Popovo,,8735|7800
Popovci,,5345|2060|5035
Popovjane,,2014
Poprajkovci,,5365
Poprelka,,4759
Poprusanovo,,7564
Poprusevci,,5084
Popska,,5466|5084
Popsko,,6950
Pordim,,5898
Poroishhe,,7218
Poroj,,8239
Porojna,,4281
Porojno,,7658|7952
Porominovo,,2639
Portitovci,,3432
 Poruchik Kurdzhievo,,9409
 Poruchik Chunchevo,,9658
Posabina,,7853
Posev,,7567
Postnik,,6833
Potok,,5309
Potoka,,4768
Potop,,2127
Potocharka,,6963
Potoche,,6850
Potochnica,,6960
Pocurnenci,,2459
Pravda,,7690|5125
Pravdino,,8695
Pravdoljub,,6765
Pravenci,,9945
Pravec,,2161
 Praveshka Lakavica,,2154
Pravishhe,,4191
 Pravo burdo,,2894
Pravoslav,,6248
Pravoslaven,,4287
Prauzhda,,3917
Prakhali,,5345
Prevala,,3457
Prekolnica,,2571
Prekruste,,2206
Prelez,,7325
Prelom,,5545
Preobrazhenci,,8541
Preseka,,6862
Preselenci,,9558
Preselec,,7772
Preselka,,9922
Presijan,,7762
Preslaven,,6048
Preslavec,,6454
Preslavci,,7635
Presoka,,4987
Prespa,,9635|2092
Prestoj,,5359
Presjak,,7754
Presjaka,,5542
Priboj,,2452
Prilep,,8445|9352
Prilepci,,6631
Primorsko,,8290
Primorci,,9376
Pripek,,8161|6858|9146
Prisad,,8161|9524
Prisadec,,8782
Priselci,,8251|9131
Prisovo,,5033
Prisojna,,7969
Pristoe,,9965
Probuda,,7748
Provadija,,9200
Progled,,4871
Progres,,6800
Prodanovci,,5307|2007|5045
Prodancha,,2471
Prolaz,,7739
Prolaznica,,3913
Prolez,,9685
Prolesha,,2228
Prolom,,4358
Propast,,6632
Prosena,,7055
Prosenik,,8548
Prosechen,,9135
Prostorno,,7263
Protopopinci,,3957
 Profesor Zlatarski,,9487
 Profesor Ishirkovo,,7572
Prokhlada,,7668
Prokhod,,8336
Prokhorovo,,8944
Prjaporec,,6716|6062
Ptichar,,6811
Ptichevo,,7946
Pudrija,,3049
Pushevo,,5062
Pchela,,8718
Pchelari,,6385
Pchelarovo,,9550|6664
Pchelin,,8456|2048
Pchelina,,7438
Pchelino,,9363
Pchelinovo,,6196
Pchelishhe,,5048
Pchelnik,,9427|9118
Pchelno,,7987
Pshenichevo,,6271
Pudarevo,,8884
Pudarino,,7959
Pudarsko,,4158
Pudarci,,6746
Punchevo,,8311
Purvan,,7958
Purvenec,,8694|4110
Purvenci,,6865
Purvica,,6882
Purvomaj,,4270|4270
Purvomajci,,5139
Purzhigrakh,,5365
Purlichevo,,3531
Purovci,,5052
Purtevci,,5300
Pursha,,5380
Pustren,,6067
Pustrovo,,6233
Pustrogor,,6519
Pustrook,,6997
Putnikovo,,6379
Pjasuchevo,,6478
Rabisha,,3938
Rabovo,,6384
Rabrovo,,3792
Ravadinovo,,8131
Ravda,,8221
Raven,,6834
Ravna,,3473|2249|9235
 Ravna gora,,8151|6526|9124
Ravnec,,8117|9523
Ravnil,,4931
Ravninata,,4781
Ravnishha,,4955
Ravnishhe,,2197
Ravno,,7329
 Ravno nivishhe,,4913
 Ravno pole,,2129
 Ravno selo,,7965
Ravnovo,,5089
Ravnogor,,4582
 Radan vojvoda,,9294
Radanovo,,5185
Radancheto,,5370
Radevo,,8917|9177
Radevci,,5362
Radecki,,8959
Radibosh,,2447
Radievo,,6427
Radilovo,,4590
Radingrad,,7245
Radino,,5360
Radinovo,,4202
Radishevo,,5838
 Radko Dimitrievo,,9808
Radkovci,,5041
Radlovci,,2548
Radnevo,,6260
Radovene,,3144
Radovec,,8780
Radovo,,2488
Radovci,,5382|5084
Radoevskoto,,5633
Radoevci,,5367
Radojnovo,,8323
Radomir,,2400
Radomirci,,5997
Radotina,,2168
Raduil,,2043
Raduj,,2359
Radulovci,,2222
Radunci,,6185
Radjuvene,,5540
Raevci,,5363
Razhdavica,,2550
Razboishhe,,2253
Razbojna,,8531|7707
Razvigorovo,,9790
Razgrad,,3633|7200
Razdel,,8747|7659
Razdelna,,6283|9153
Razdelci,,7989
Razdol,,2835
Razliv,,2162
Razlog,,2760
Razsokha,,5089
 Rajkova mogila,,6525
Rajkovska,,5617
Rajkovci,,5039
Rajnino,,7421
Rajnovo,,6423
Rajnovci,,5347|5094
Rajnushkovci,,5363
Rajovo,,2017
Rakevo,,3067
Rakilovci,,2451
Rakita,,5998|2223
Rakitna,,2753
Rakitnica,,6067|3791
Rakitovo,,4640
Raklinovo,,8547
Raklica,,8439
Rakovica,,3820
Rakovo,,2577|8994
Rakovski,,9659|4150|7264
Rakovskovo,,8257
Ralevo,,5875
Ralevci,,5367
Ralinovci,,5098
Ralica,,6820|7759
Ralichevo,,6965
Ranenci,,2569
 Rani list,,6720
 Rani lug,,2484
Rasnik,,2357
Rasovo,,3660
Rastnik,,6865
Rakhovci,,5343
Rachevci,,5345
Rachovci,,5350
Rashevci,,5035
 Rashka Grashhica,,2578
Rashkovo,,2152
Rashovite,,5350
Rashovica,,3532
Rajuvci,,5093
Rajanovci,,2239|3935
Rajanci,,2446
Rebrevci,,5087
Rebro,,2384
Rebrovo,,2294
Reburkovo,,3158
Redeshkovci,,5340
Redina,,2269
Rezhanci,,2380
Rezhinci,,2562
Rezach,,5088
Rezbarci,,6649
Rezovo,,8281
Reka,,4734
Rekichka,,5088
Rel'ovo,,2018
Repljana,,3954
Reselec,,5993
Resen,,5060
Resilovo,,2621
Rechani,,4793
Rechica,,8567
Rejanovci,,2483
Ribarica,,5720|2179
Ribarci,,6790
Riben,,5847
 Riben dol,,4952
Ribino,,6939
Ribnik,,2864
Ribnica,,4973
Ribnovo,,2967
Ridino,,6849
Ridovo,,6742
Rila,,2630
 Rilski manastir,,2643
Rilci,,2710
Risimanovo,,6274
Ritja,,5370
Rish,,9830
Robovo,,8664
Rovina,,4736
Rogach,,6916
Rogachevo,,9632
Roglec,,3962
Rogozari,,6845
Rogozen,,3257
Rogozina,,9560
Rogozinovo,,6469
Rogozche,,6845
Rogosh,,4140
Roguljat,,5447
Rodina,,5092
Rodopi,,6356
Rodopsko,,6762
Rozhden,,8539
Rozhdensko,,6850
Rozhen,,2820
Roza,,8630
Rozino,,6996|4340
Rozovec,,4154
Rozovo,,4583|6163
Roman,,3130
Ropot,,2254
Rosen,,8150|9537|4457
Rosenovo,,8318|9369
Rosina,,7872
Rosica,,9540|7933|5221
Rosno,,5091
Rosoman,,2225
Rokhleva,,4653
Rojak,,9252
Rudarci,,2343
Rudina,,8536|6659
Rudnik,,8112|9105
Rudozem,,4960
Ruevci,,5367
Ruen,,8540|4102
Ruec,,7744
Ruzhinci,,3930
Ruzhica,,8722|9954
Rujno,,7692
Rujchovci,,5300
Rumanja,,6057
Rumelija,,6496
Rumjancevo,,5785
Runja,,5399
Rupite,,2863
Rupkite,,6251
Rupci,,5994|3726
Rupcha,,8574
Rusalina,,6695
Rusalsko,,6795
Rusalja,,5057
Ruse,,7000
Rusinovci,,5380
 Ruska Bela,,3148
Ruskovci,,5035
Rusokastro,,8105
Rustan,,4956
Rukhovci,,5079
Ruchej,,6928
Ruzhana,,2060
Ruzhdak,,2856
Ruzhevo,,4169
 Ruzhevo Konare,,4170
Ruzhena,,6171
Ruzhenovo,,6498
Ruzhica,,8530
Rusovo,,2568
Rut,,6850
Rutlina,,7935
Rjazkovci,,5345
Rjakhovo,,7070
Rjakhovcite,,5440
Sava,,9251
Savin,,7318
Savino,,8643
Savojski,,2576
Sadina,,7841
Sadovec,,5999
Sadovik,,2387
Sadovica,,6815
Sadovo,,8463|2922|4122|9139
Sazhdenik,,2576
Sakarci,,8772
Salasuka,,6397
Salash,,3933
Salmanovo,,9817
Samovila,,6942
Samovodene,,5040
Samodiva,,6878
Samokitka,,6897
Samokov,,2000
Samoranovo,,2620
Samotino,,9104
Samsiite,,5035
Samuil,,7253
 Samuilova krepost,,2895
Samuilovo,,2879|9384|8865|6082
Sanadinovo,,5929
Sandanski,,2800
Sandrovo,,7059
#NAME?,,8484
 Sapareva banja,,3650
Saparevo,,2645
Saraevo,,3333
Saransko,,8659
Saranci,,2120
Saraja,,4447
Satovcha,,2950
Sbor,,6961|4537
Sborino,,6995
Sborishhe,,8899
Svalenik,,7082
Svatbare,,6675
Svezhen,,4153
 Sveta Petka,,4620
 Sveti Vlas,,8256
 Sveti Nikola,,9662
Svetlen,,6890|7877
Svetlina,,8322|6420|6547
Svetlja,,2449
Svetovrachene,,1752
Svetoslav,,6378|7554
Svetoslavci,,5080
Svetulka,,6768
Sveshhari,,7423
Svidnja,,2266
Svilengrad,,6500
 Svinarski dol,,5300
Svirachi,,6978
Svirkovo,,6499
Svirci,,5367
Svirchovo,,7960
Svishhov,,5250
Svoboda,,8103|9398|6800|4532|6230
Svoboden,,6278
Svobodinovo,,6706
Svobodica,,7997
Svoge,,2260
Svode,,2155
Sevar,,7332
Sevdalina,,6745
Severnjak,,9405
Severci,,9415
Sevlievo,,5400
Sedelec,,2834
Sedefche,,6827
Sedlarevo,,8886
Sedlari,,6800
Sedlarci,,6789
Sedlovina,,6621
Sedjankovci,,5300
Sejdol,,7282
Sejkovci,,5344
Sejmenite,,5041
Sekirka,,6890
Sekulovo,,7665
Selanovci,,3301
Seliminovo,,8862
Selishhe,,2744|5462|4735
 Selishhen dol,,2377
 Selska poljana,,6487
Selce,,9655|5655|6184
Selci,,4129
Selcha,,4814
Seljanin,,2060
Semerdzhievo,,7072
Semerdzhiite,,5340
Semerci,,7970
Semkovci,,5035
Semchinovo,,4474
Sennik,,5450
Senovo,,7271
Senoklas,,6481
Senokos,,2752|9634
Sence,,6800
Septemvri,,4490
Septemvrijci,,9693|3637|3796
Seslav,,7341
Sestrimo,,4469
Sestrinsko,,6660
 Sechen kamuk,,5360
Sechishhe,,9923
 Siv kladenec,,6985
 Siva reka,,6522
Sivino,,4780
Sigmen,,8438
Silen,,6380
Silistra,,7500
Simeonovgrad,,6490
Simeonovec,,4475
Simeonovo,,8665
Simitli,,2730
Sinagovci,,3737
Sinapovo,,8775
Sindel,,9270
Sindelci,,6825
Sinemorec,,8279
 Sini vir,,9950
 Sini vrukh,,4236
 Sini rid,,8534
Siniger,,6950
Sinitovo,,4442
Sinchec,,6785
 Sin'o burdo,,3139
 Sin'o kamene,,8332
 Sinja voda,,7287
Sipej,,6629
Sipec,,6850
Sirakovo,,9564|6359|3254
Sirishhnik,,2450
Sitovo,,8744|4104|7583
Skala,,8462|7667
Skalak,,8575|6923
Skalina,,6846
Skalica,,8645
Skalishhe,,6652
 Skalna glava,,6748
Skalsko,,5386
Skandaloto,,5644
Sklave,,2811
Skobelevo,,6439|5508|4427|8871|6148
Skomlja,,3946
Skorcite,,5350
Skravena,,2163
Skrebatno,,2964
Skrino,,2663
Skrinjano,,2599
Skrut,,2897
Skutare,,4134
Skurbino,,6720
Slaveevo,,9366|6976
Slavejkovo,,5391|8738|9247
Slavejno,,4747
Slavovica,,4460|5858
Slavotin,,3451
Slavshhica,,5758
Slavjani,,5565
Slavjanin,,6236
Slavjanovo,,6473|5840|7860
Slavjanci,,8460
 Sladka voda,,9257
Sladkodum,,6960
Sladun,,6534
 Sladuk kladenec,,6065
Slakovci,,2369
Slamino,,8663
 Slana bara,,3728
Slanotrun,,3769
Slatina,,5564|3535|4342|7585
Slatino,,2642|2449
Slashhen,,2937
Slivak,,9784
Slivarka,,6919
Slivarovo,,8358
Slivata,,3668
Slivek,,5537
Sliven,,8800
Slivenci,,9395
Slivito,,6176
Slivka,,4943
Slivnica,,2844|2200
 Slivo pole,,7060
Slivovik,,3664
Slivovica,,5157
Slivovnik,,3915
Slivovo,,8331|5367|4840
Slishovci,,2484
Slokoshhica,,2533
Slomer,,5229
Slunchevo,,9144
Slunchovec,,7963
Slunchogled,,6850
Smilec,,4531|7577
Smilovci,,5477
Smiljan,,4770
Smin,,9679
Smirnenski,,3663|7074
Smirnenci,,6467
 Smirov dol,,2456
Smolevo,,2794
Smolichano,,2583
Smolnik,,8491
Smolnica,,9383
Smolsko,,2093
Smolcha,,2255
Smoljan,,4700
Smoljanovci,,3450
Smochan,,5547
Smochevo,,2641
Smjadovo,,9820
Snezha,,8568
Snezhina,,9244
Snezhinka,,6741
Snop,,9557
Snjagovo,,8579|9533
Sovata,,5283
Sovoljano,,2547
Sozopol,,8130
Sokol,,7621|8945
Sokolare,,3258
Sokolarci,,8984
Sokolenci,,6595
Sokolec,,8554
Sokolino,,6812
Sokolite,,6694
Sokolica,,4367
Sokolnik,,9351
Sokolovo,,8435|9640|5392|5538
Sokolovci,,4751
Sokolsko,,6648
Sokoljane,,6688
Solari,,5300
Solishha,,4842
Solishhe,,6721
Solnik,,9122
Somovit,,5959
Sopica,,2378
Sopovo,,2664
Sopot,,5571|4330
Sopotot,,4974
Sotirja,,8859
Sofijci,,6850
Sofija,,1000
Sofronievo,,3348
Spanci,,5344
Spanchevci,,3541
Spasovo,,9561|6249
Spasovci,,5340
Spatovo,,2811
Spakhievo,,6346
Spoluka,,6799
Sracimir,,7541
Sracimirovo,,3751
Srebrinovo,,4525
Sreburna,,7587
Sredec,,8300|4998|6066
Sredina,,9545
Sredinka,,6738
Sredishhe,,7560
Sredkovec,,9762
Sredna,,2918
 Sredna makhala,,8581
Srednevo,,6717
 Sredni kolibi,,5093
 Sredni rut,,3137
 Sredno gradishhe,,6241
 Sredno selo,,9222|5088
Srednogorovo,,6166
Srednogorci,,4954
Srednja,,9798
Sredogriv,,3959
Sredok,,4798
Sredorek,,2555|8845
Sredoselci,,7433
Sredska,,6693
Sredsko,,6890
Srem,,8774
Srunsko,,6775
Staverci,,5863
Staevci,,9673
Stajnovci,,5350
 Stajchin dol,,4931
Stajchovci,,2489
Stakevci,,3963
Stalevo,,9433
 Stalijska makhala,,3657
Stambolijski,,6311|4210
Stambolovo,,6362|7063|2069|5249
Stan,,9917
Stanevo,,3641
Stanec,,7915
Staninci,,2254
Stanovec,,9952
Stancha,,5380
 Stanchov khan,,5376
Stan'ovci,,2391
Stanjanci,,9872
 Star chitak,,6792
 Stara Zagora,,6000
 Stara Kresna,,2854
 Stara reka,,8675|8841
 Stara rechka,,7999
Starejshino,,6890
 Stari chal,,6964
Starilkovci,,5343
 Staro Zhelezare,,4165
 Staro mjasto,,6741
 Staro Orjakhovo,,9110
 Staro selishhe,,7447
 Staro selo,,5671|2412|7637|8876|3142
Starovo,,6877
 Starozagorski bani,,6062
Staropatica,,3822
Starosel,,4175
Staroselec,,9226
Staroselci,,5865
Starcevo,,4987
Starchevo,,2861
Starchishhe,,7963
Stevrek,,7960
Stezherovo,,5920
Stensko,,2566
 Stefan Karadzha,,9371|7633|9293
 Stefan Karadzhovo,,8725
 Stefan Stambolovo,,5192
Stefanovo,,9360|5335|5581|2414
Stikul,,4843
Stob,,2638
Stoevo,,4266
Stoevci,,5347
Stozha,,2800
Stozher,,9350
 Stoil vojvoda,,8940
Stoilovo,,8359
Stojkite,,4844
Stojkovo,,6341
Stojkovci,,5301
Stojnovo,,7953
Stojnovskoto,,5625
Stojchevci,,5081
Stojchovci,,5343
Stokite,,5462
Stoletovo,,4338|6084
Stolnik,,2134
Stolut,,5452
Stomanevo,,4822
Stomanecite,,5300
Stomanci,,6873
 Stojan Mikhajlovski,,9928
#NAME?,,6243
Stojanovo,,6773|3539
Stojanovci,,3134|5084
Stradalovo,,2584
Strazha,,4728|7738
Strazhata,,5369
Strazhevci,,6731
Strazhec,,6954|7217
Strazhica,,9615|5150
Strazhnica,,6710
Straldzha,,8680
Strandzha,,8758
Strandzhevo,,6929
Stransko,,6428
Strakhil,,9178
 Strakhil vojvoda,,6660
Strakhilica,,9774
Strakhilovo,,5190
Stracin,,8247
Strashimir,,4988
Strashimirovo,,9151
Strezimirovci,,2482
Strelec,,6092|5133
Strelkovo,,7562
Strelci,,4152|8995
Strelcha,,4530
Stremovo,,6683
Stremci,,6680
Strizhba,,6899
Stroevo,,4197
Strojno,,8732
Strojnovci,,7964
Strugut,,5626
Struindol,,3919
Struino,,9804
Struma,,2806
Strumeshnica,,2895
Strumjani,,2825
Strupec,,8856|3132
Struja,,8555
Strumci,,5369
Strjama,,4142
Stubel,,3490
 Studen izvor,,2488
 Studen kladenec,,6958
Studena,,6538|2344|4932
Studenec,,7279|4878
Studenica,,9768
 Studeno buche,,3480
Sturgel,,2099
Sturmen,,7124
Sturnica,,4957
Suvorovo,,9170
Sugarevo,,2820
Sulica,,6062
Sultani,,5094
Sumer,,3491
Sungurlare,,8470
Susam,,6352
 Sukha reka,,9881|5045
Sukhache,,3267
Sukhindol,,5240
Sukhovo,,6794
Sukhodol,,8328|7618
Sukhozem,,4353
Sukholoevci,,5380
Sukhostrel,,2736
Sushevo,,7324
Sushina,,9868
Sushica,,2759|2558|5177
Subkovci,,5099
Subotkovci,,5340
Subrano,,8941
Sudievo,,8522|8923
 Sudijsko pole,,8915
Suedinenie,,8430|4190|6234|7779
Surnak,,6924
Surnevec,,6232
Surnevo,,8479|6268
Surnegor,,4146
Surnenci,,5035
Surnec,,9482
Surnino,,9562|4799
Surnica,,6361|4623
Surpovo,,7578
Surcevo,,8926
Sjanovo,,7647
Sjarovci,,5380
Sjarci,,6800
Taban,,2215
Tabachka,,7085
Tabashka,,5461
Tavalichevo,,2538
Tajmishhe,,7983
Tamarino,,8658
Tatarevo,,6344|4282
Tatari,,5918
Tatkovo,,6670
Tatul,,6835
Tvurdinci,,7755
Tvurdica,,8155|9675|8890
Teketo,,6370
Telerig,,9420
Telish,,5990
Telcharka,,6850
Temenuga,,6759|5165
Tenevo,,8672
Tepava,,5554
Teplen,,2935
Tervel,,9450|9769
Terziite,,5035
Terzijsko,,8465|5665
Terter,,7322
Teteven,,5700
Tetovo,,7340
Teshel,,4810
Teshovo,,2927
Tikale,,4729
Timarevo,,9785
Tintjava,,6955
Tipchenica,,3164
Titevci,,5070
Tikhovec,,7997
Tikhomir,,6898
Tikhomirovo,,6279
Ticha,,8980
Tishanovo,,2591
Tishevica,,3055
Tijanovci,,3787
Tlachene,,3243
 Todor Ikonomovo,,9964
Todorecite,,5350
Todorichene,,5781
Todorovo,,5887|7425
Todorovci,,5301|5045
Todorcheta,,5343
Todjuvci,,5094
Tokachka,,6965
Tolovica,,3736
Tombeto,,5080
Tompsun,,2285
Tomchevci,,5365
 Tonsko dabe,,2875
Topola,,9654
Topoli,,9024
 Topoli dol,,4454
Topolica,,8549
Topolka,,6968
Topolnica,,2858|2619
Topolovgrad,,6560
Topolovec,,3828|3936
Topolovo,,6495|4260
Topolchane,,6728|8880
Topoljane,,6277
Topuzevo,,8986
Topuzi,,5098
Topchii,,7261
Topchijsko,,8582
Torbaluzhite,,5300
Toros,,5790
Totleben,,5899
Tochilari,,7316
Toshevci,,3825
Trave,,4944
Travnik,,9694
Trajkovo,,3645
Trakiec,,6369
Trakijci,,8339
Trakija,,6074
Trapeskovci,,5349
Trapishhe,,7281
Trapoklovo,,8889
Trebishhe,,4737
Trekljano,,2557
Trem,,9764
Treskavec,,7994
 Tri kladenci,,3072
 Tri mogili,,6682|4263
Trivodici,,4222
Trigorci,,9645
Trigrad,,4835
Trilistnik,,4141
Trifonovo,,3435
Troica,,9864
Troskovo,,2733
Trojan,,6491|5600
Trojanovo,,8108|6270
Trud,,4199
Trudovec,,2160
Trubach,,7283
Trun,,2460
Trunak,,8550
Trunito,,5339
Trunica,,9925
Trunkovo,,8719|6093
Trunkovci,,5097
Trunchovica,,5925
Trustenik,,5857|7092
Trustika,,7835
Trustikovo,,8158|9271
Trjavna,,5350
Tuden,,2253
Tulovo,,6170
Tumbalovo,,5464
Tumbevci,,5083
Turija,,6157
Turkincha,,5388
Turokovci,,2468
Turjan,,4753
Tutrakan,,7600
Tutrakanci,,9275
Tukhovishha,,2939
Tuchenica,,5892
Tushovica,,9884
Tuzha,,6160
Tukach,,9953
 Tunka bara,,4983
 Tunki rut,,5084
Tunkovo,,8237|6391
Tunkoto,,4914
Tupchileshhovo,,7919
Turgovishhe,,7700|3953
Turkasheni,,5070
Turna,,6750
Turnava,,8699|3252
Turnak,,3249
Turnene,,5882
Turnicheni,,6158
Turnovlag,,2532
Turnovca,,7774
Turnovci,,6843|7629
Turnoslivka,,6763
Turnjane,,3741
Tursino,,2586
Turkhovo,,5424
Turun,,4730
Tjulenovo,,9684
Tjurkmen,,4157
Tjutjunche,,6850
Tjanevo,,9429|6492
Ugledno,,7936
Ugljarci,,2418
Ugorelec,,5465
Ugorjalkovci,,5082
Ugurchin,,5580
Uzovo,,9554
Uzundzhovo,,6350
Uzunite,,5343
Uzunovo,,4237
Umarevci,,5541
Urvata,,5365
Urovene,,3064
Uruchevci,,4936
Usojka,,2675
Ustina,,4228
Ustrem,,8770
Ustren,,6853
Ukhlovica,,4769
eUshevci,,5035
Ushi,,2557
Ushinci,,7244
Fabrika,,4992
Fazanovo,,8272
Fakija,,8340
Fatovo,,4797
 Feldfebel Denkovo,,9394
Filaretovo,,8982
Filipovo,,2775|6564
Filipovci,,2472
Florentin,,3778
Fotinovo,,6873|4571
Frolosh,,2682
Furen,,3075
Furgovo,,2952
Furgovci,,5300
Furevci,,5369
Furtuni,,5367
 Khadzhi Dimitur,,9657
Khadzhidimitrovo,,8635|6141|5287
Khadzhidimovo,,2933
Khadzhievo,,4441
Khadzhiite,,8492
Khadzhijsko,,6875
Khajredin,,3357
Khalvadzhijsko,,7997
 Khalovski kolibi,,3837
 Khan Asparukhovo,,6055
 Khan Krum,,9863
Khanovo,,8668
Kharacherite,,5340
Kharvalovci,,5093
Kharmanli,,6450
Khaskovo,,6300
Khasovica,,4746
Khvojna,,4890
Khvostjane,,2942
Khvurchil,,2092
Kherakovo,,2237
Khirevo,,5451
Khisar,,6914
Khisarja,,4180
Khitovo,,9494
Khitrino,,9780
Khlevene,,5579
Khljabovo,,8771
Khodzhovci,,6745
Khotanca,,7054
Khotnica,,5058
Khotovo,,2821
Khrabrino,,4111
Khrabrovo,,9618|9242
Khrabursko,,2224
Khrasna,,2824
Khrastovo,,6929
Khristijanovo,,6072
 Khristo Danovo,,4339
Khristovci,,5365|5070
Khrishheni,,6050
Khromica,,6782
Khubavene,,3135
Khuma,,7258
Khukhla,,6981
Khunevci,,5082
Khurlec,,3345
Khursovo,,2819|7451|9337
Cakonica,,3152
Calapica,,4218
 Cani Ginchevo,,9957
Caparevo,,2834
 Car Asen,,4422|7536|7849
 Car Kalojan,,4126|7280
 Car Samuil,,7640
 Car Simeonovo,,3745
 Car Shishmanovo,,3853
Caracovo,,4204
 Carev brod,,9747
 Carev dol,,7627
 Careva livada,,5380
 Careva poljana,,6363
Carevec,,9367|6622|3141|5282
Carevo,,8260
Carevci,,7932|9129
Carimir,,4192
Carino,,6893
Carichina,,2257
Carichino,,9614
#NAME?,,3827
 Carski izvor,,5174
Cacarovci,,2221|4995
Cvekljuvci,,5094
Cvetino,,4630
 Cvetkova bara,,3542
Cvetnica,,7763
Cvjatkovci,,5340
Cvjatovo,,6850
Cegrilovci,,2479
Celina,,6223
Cenino,,8916
Cenovich,,7575
Cenovo,,7139|6222
Ceperanite,,5035
Ceretelevo,,4189
Cerecel,,2286
Cerkovski,,8472
 Cerova korija,,5047
Cerovec,,7083
Cerovica,,2567
Cerovishhe,,7922
Cerovo,,2722|4465|2287
Ciklovo,,2666
Cirka,,4933
Conevo,,9261
Conkovci,,5035
Creshnovo,,2563
Cruklevci,,2238
Cruncha,,4419|4837
Curvarica,,2580
 Curvena jabulka,,2576
Curvendol,,2567
Curvenjano,,2542
Curvishhe,,2624
Curkva,,9631
Curkvica,,6844|9939
Curkvishhe,,2624
Chavdar,,2084|4829
Chavdarci,,5559|5084
Chavei,,5345
Chavka,,6890
Chajka,,6820|9277
Chakalarovo,,6870
Chakali,,5099
Chakalite,,5365
Chakalci,,6850
Chal,,6947
Chala,,4836
Chalukovi,,4123
Chamla,,4848
Chargan,,8628
Charda,,8692
Charkovo,,5309
Cheganci,,6744
Chekanec,,2577|2221
Chekanci,,7961
Chekanchevo,,2122
Chelnik,,8678
Chelopek,,3043
Chelopech,,2087
Chelopechene,,9664
Cheljustnica,,3465
Chemish,,3477
Chepelare,,4850
Chepino,,2436
Chepinci,,4958|1754
Chepleten,,4786
Chepurlinci,,2212
Cherven,,4252|7084
 Cherven breg,,2629
 Cherven brjag,,5980
Chervena,,5293
 Chervena voda,,7051
 Chervena lokva,,5311
 Chervena mogila,,2408
 Chervena skala,,6750
Chervenakovo,,8924
Chervenkovci,,5070
Chervenci,,9298
Cherganovo,,6139
Cherencha,,9799
Cherepovo,,6462
Cheresha,,8577
Chereshica,,6672
Chereshka,,6850
Chereshkite,,4771
Chereshnica,,2824
Chereshovica,,3524
Chereshovo,,2787|7339|4772
 Chereshovska reka,,4773
Cherkaski,,3533
Cherkovica,,5951
Cherkovishhe,,2092
Cherkovna,,7252|7656|7781|9232
Cherkovo,,8478
Cherna,,9417|9773
 Cherna voda,,7966
 Cherna gora,,2340|6258
 Cherna Mesta,,2789
 Cherna mogila,,8527|6471
 Cherna niva,,6692
 Cherna skala,,6626
Chernevo,,9134
Chernevci,,5349
 Cherni brjag,,7973
 Cherni Vit,,5725
 Cherni vrukh,,8122|3649|9827
 Cherni djal,,5084
 Cherni Osum,,5620
 Cherni rid,,6998
Chernigovo,,6778
Chernik,,7651
Chernica,,8468
Cherniche,,2741
Chernichevo,,6954|4181
Chernichino,,6953
 Cherno more,,8115
 Cherno pole,,3922
Chernovrukh,,5365
Chernoglavci,,9778
Chernogor,,7614
Chernogorovo,,6411|4455
Chernograd,,8545
Chernodub,,6524
Chernozem,,8739
Chernozemen,,4168
Chernokapci,,7921
Chernolik,,7693
Chernomorec,,8142
Chernomorci,,9678
Chernook,,9259
Chernooki,,6946
Chernookovo,,9532|9873
Chernoochene,,6701
Chern'ovo,,2067
Chern'ovci,,6670
Chestimensko,,7559
Chetirci,,2598
Chetroka,,4241
Chekhlare,,4159
Cheshljanci,,2556
Cheshma,,5156
Cheshnegirovo,,4121
Chibaovci,,2258
Chilik,,6625
Chilnov,,7162
Chintulovo,,8858
Chiprovci,,3460
Chiren,,3050
Chirpan,,6200
Chistovo,,5088
Chitakovci,,5300
Chiflik,,6667|5661|3912
Chichevo,,6869
Chichil,,3819
Choba,,4161
Chobanka,,6836
Chokmanovo,,4760
Chokoba,,8887
Cholakova,,4636
Chomakovo,,6800
Chomakovci,,3269
Chorbadzhijsko,,6890
Chorul,,2217
Chubra,,8461
Chubrika,,6786
Chudinci,,2562
Chudomir,,7284
Chujpetlovo,,2346
Chukarka,,8529
Chukarovo,,8769
Chukata,,4868|5088
Chukilite,,5300
Chukovezer,,2209
Chukovec,,2425|7678
Chukovo,,5378|6818
Chuprene,,3950
Churek,,2126
Churen,,4226
Churilovo,,2885
Churicheni,,2891
Churka,,4915
Churukovo,,4823
Chuchuliga,,6949
Chuchuligovo,,2865
Chuchur,,4796
Shabla,,9680
Shanovo,,6169
Sharani,,5300
Sharenska,,4916
Sharkovo,,8753
Shatrovo,,2684
Shejnovo,,6144
Shemshevo,,5027
Sheremetja,,5034
Shivarovo,,8559
Shivachevo,,8895
Shiliveri,,5094
Shilkovci,,5087
 Shipikova makhala,,3836
Shipka,,6150
Shipkovica,,2493
Shipkovo,,5663
Shipok,,6865
Shipot,,3744
Shipochane,,2015
Shipochano,,2552
Shipchenite,,5344
 Shiroka luka,,4840
 Shiroka poljana,,6365
 Shiroki dol,,2013
 Shiroko pole,,6650
Shirokovo,,7159
Shishenci,,3834
Shishkovica,,7971
Shishkovci,,2553
Shishmanovo,,6458
Shishmanci,,4133
Shijakovo,,5962
Shkorpilovci,,9112
Shodekovci,,5053
Shopite,,5459
Shopci,,6883
Shubeci,,5097
Shuma,,2252
Shumata,,5468
Shumen,,9700
Shumenci,,7639
Shumnatica,,6888
Shushnja,,5380
Shherna,,6842
Shhipsko,,9283
Shhit,,6528
Shhruklevo,,7078
Shhurkovo,,4461
glen,,5791
Jugovo,,4869
Judelnik,,7061
Julievo,,6168
Junak,,9138
Junaci,,6800
Junacite,,4478
Jundola,,4629
Junec,,9109
Juper,,7338
Jurukovo,,2796
Jablanica,,5750|2298
Jablanovo,,8989
Jabulkovec,,6787
Jabulkovo,,6440|2544
Jabulkovci,,5350
Jabulchevo,,8542
Jabulcheni,,6715
Javor,,5350
Javorec,,5449
Javornica,,2896
Javorovec,,6179
Javorovo,,6696|6240
Javrovo,,4258
Jagnilo,,9231
Jagoda,,6167
Jagodina,,4835
Jagodovo,,3537|4113
Jazdach,,6229
Jazovec,,7991
 Jakim Gruevo,,7443
Jakimovo,,3640
Jakovica,,6870
Jakovo,,2875
Jakovci,,5081
Jakoruda,,2790
Jalbotina,,2221
Jalovo,,5056
Jambol,,8600
Jamino,,6854
Jamna,,2183
Jana,,2135
Janino,,6865
Jankovo,,9823
Jankovci,,5345
Janovo,,2816
Jantra,,5344|5135
Jan'ovec,,3949
Jardzhilovci,,2355
Jarebica,,6732|7691
Jarebichna,,9158
Jarebichno,,7998
Jarebkovica,,2023
Jarlovica,,3799
Jarlovo,,2029
Jarlovci,,2481
Jaroslavci,,2376
Jasen,,5850|3775
Jasenite,,5300
Jasenkovo,,9777
Jasenovec,,7250
Jasenovo,,8569|6147
 Jasna poljana,,8147
 Jasno pole,,4139
Jastreb,,6600
Jastrebino,,7975
Jastrebna,,7664
Jastrebovo,,7073|6085
Jakhinovo,,2620
